…
{% highlight text %}
## # A tibble: 505 × 4
##    ticker.symbol            security            gics.sector
##            <chr>               <chr>                  <chr>
## 1            MMM          3M Company            Industrials
## 2            ABT Abbott Laboratories            Health Care
## 3           ABBV              AbbVie            Health Care
## 4            ACN       Accenture plc Information Technology
## 5           ATVI Activision Blizzard Information Technology
## 6            AYI   Acuity Brands Inc            Industrials
## 7           ADBE   Adobe Systems Inc Information Technology
## 8            AAP  Advance Auto Parts Consumer Discretionary
## 9            AES            AES Corp              Utilities
## 10           AET           Aetna Inc            Health Care
## # ... with 495 more rows, and 1 more variables:
## #   gics.sub.industry <chr>
…
Let's see what happens when we try `get_stock_prices()` on MasterCard using ticker, "MA".


{% highlight r %}
"MA" %>%
    get_stock_prices(return_format = 'tibble')
{% endhighlight %}



{% highlight text %}
## # A tibble: 2,470 × 7
##          Date   Open   High    Low  Close   Volume  Adjusted
##        <date>  <dbl>  <dbl>  <dbl>  <dbl>    <dbl>     <dbl>
## 1  2007-01-03  99.55  99.68  95.63  96.41 26289000  9.241188
## 2  2007-01-04  96.90 101.85  95.30 101.14 27024000  9.694573
## 3  2007-01-05 100.99 102.20  99.00 101.06 29632000  9.686904
## 4  2007-01-08  99.01 102.25  99.00 101.08 16006000  9.688821
## 5  2007-01-09 101.10 105.75 100.60 105.74 36952000 10.135497
## 6  2007-01-10 105.62 106.50 103.00 104.74 35099000 10.048196
## 7  2007-01-11 105.20 108.03 103.54 105.50 37671000 10.121106
## 8  2007-01-12 105.75 107.25 104.85 105.25 18233000 10.097122
## 9  2007-01-16 105.30 107.47 104.63 106.00 18028000 10.169074
## 10 2007-01-17 107.00 110.22 105.77 109.04 45903000 10.460715
## # ... with 2,460 more rows
…
We'll test the function to see what it returns:


{% highlight r %}
"MA" %>% 
    get_stock_prices(return_format = "tibble") %>% 
    get_log_returns(return_format = "tibble") 
{% endhighlight %}



{% highlight text %}
## # A tibble: 2,470 × 2
##          Date   Log.Returns
##        <date>         <dbl>
## 1  2007-01-03 -0.0320501105
## 2  2007-01-04  0.0478958154
## 3  2007-01-05 -0.0007913353
## 4  2007-01-08  0.0001978728
## 5  2007-01-09  0.0450710259
## 6  2007-01-10 -0.0095021998
## 7  2007-01-11  0.0072298830
## 8  2007-01-12 -0.0023725373
## 9  2007-01-16  0.0071006973
## 10 2007-01-17  0.0282756831
## # ... with 2,460 more rows
…
Let's take a look at `sp_500`. Notice that the `stock.prices` and `log.returns` columns include `tibble`s within the data frame. 


{% highlight r %}
sp_500 %>% 
    select(ticker.symbol, stock.prices:log.returns) 
{% endhighlight %}



{% highlight text %}
## # A tibble: 504 × 3
##    ticker.symbol         stock.prices          log.returns
##            <chr>               <list>               <list>
## 1            MMM <tibble [2,467 × 7]> <tibble [2,467 × 2]>
## 2            ABT <tibble [2,467 × 7]> <tibble [2,467 × 2]>
## 3           ABBV   <tibble [957 × 7]>   <tibble [957 × 2]>
## 4            ACN <tibble [2,467 × 7]> <tibble [2,467 × 2]>
## 5           ATVI <tibble [2,467 × 7]> <tibble [2,467 × 2]>
## 6            AYI <tibble [2,467 × 7]> <tibble [2,467 × 2]>
## 7           ADBE <tibble [2,467 × 7]> <tibble [2,467 × 2]>
## 8            AAP <tibble [2,467 × 7]> <tibble [2,467 × 2]>
## 9            AES <tibble [2,467 × 7]> <tibble [2,467 × 2]>
## 10           AET <tibble [2,467 × 7]> <tibble [2,467 × 2]>
## # ... with 494 more rows
{% endhighlight %}

Let's peek into one of the nested tibbles:


{% highlight r %}
sp_500$stock.prices[[1]] 
{% endhighlight %}



{% highlight text %}
## # A tibble: 2,467 × 7
##          Date  Open  High   Low Close  Volume Adjusted
##        <date> <dbl> <dbl> <dbl> <dbl>   <dbl>    <dbl>
## 1  2007-01-03 77.53 78.85 77.38 78.26 3781500 60.69732
## 2  2007-01-04 78.40 78.41 77.45 77.95 2968400 60.45688
## 3  2007-01-05 77.89 77.90 77.01 77.42 2765200 60.04582
## 4  2007-01-08 77.42 78.04 76.97 77.59 2434500 60.17767
## 5  2007-01-09 78.00 78.23 77.44 77.68 1896800 60.24748
## 6  2007-01-10 77.31 77.96 77.04 77.85 1787500 60.37932
## 7  2007-01-11 78.05 79.03 77.88 78.65 2372500 60.99979
## 8  2007-01-12 78.41 79.50 78.22 79.36 2582200 61.55046
## 9  2007-01-16 79.48 79.62 78.92 79.56 2526600 61.70557
## 10 2007-01-17 79.33 79.51 78.75 78.91 2711300 61.20145
## # ... with 2,457 more rows
…
It's the stock prices for the first stock, [3M](https://finance.yahoo.com/quote/MMM?p=MMM): all 2467 observations. This is great! We can sort, filter, and perform calculations on all the stock prices at once with the nested tibbles, and the sub-data is all stored in one data frame. 

The final output included `mean.log.returns`, `sd.log.returns`, and `n.trade.days`, which were mapped using the `map_dbl()` function. The `map()` function always returns a `list`. Sometimes we want a value. For scalars we can return the value using `map_dbl()`, `map_chr()`, ..., depending on the return type. Let's check out the final output.


{% highlight r %}
sp_500 %>% 
    select(ticker.symbol, mean.log.returns:n.trade.days) 
{% endhighlight %}



{% highlight text %}
## # A tibble: 504 × 4
##    ticker.symbol mean.log.returns sd.log.returns n.trade.days
##            <chr>            <dbl>          <dbl>        <dbl>
## 1            MMM     0.0007632340     0.01422281         2467
## 2            ABT     0.0001979606     0.01950192         2467
## 3           ABBV     0.0013348760     0.01719060          957
## 4            ACN     0.0007399803     0.01670111         2467
## 5           ATVI     0.0008421053     0.02635776         2467
## 6            AYI     0.0008501063     0.02418780         2467
## 7           ADBE     0.0006484168     0.02147966         2467
## 8            AAP     0.0004652361     0.02014878         2467
## 9            AES     0.0006990563     0.02511585         2467
## 10           AET     0.0002277063     0.02218273         2467
## # ... with 494 more rows
…
Next, we need to `unnest()` the tibble: `unnest()` effectively ungroups the nested tibbles within the top level of the tibble (You'll see what I mean below). We only need to keep the `ticker.symbol` and the unnested `log.returns` data. 


{% highlight r %}
sp_500_hp_unnest <- sp_500_hp %>%
    select(ticker.symbol, log.returns) %>%
    unnest()
sp_500_hp_unnest
{% endhighlight %}



{% highlight text %}
## # A tibble: 42,806 × 3
##    ticker.symbol       Date  Log.Returns
##            <chr>     <date>        <dbl>
## 1            LYB 2010-04-28 -0.011299555
## 2            LYB 2010-04-29  0.044451763
## 3            LYB 2010-04-30 -0.030907582
## 4            LYB 2010-05-03  0.022173858
## 5            LYB 2010-05-04 -0.058707557
## 6            LYB 2010-05-05 -0.043247414
## 7            LYB 2010-05-06 -0.056958400
## 8            LYB 2010-05-07 -0.044685541
## 9            LYB 2010-05-10  0.021803576
## 10           LYB 2010-05-11 -0.005803234
## # ... with 42,796 more rows
…
The last data manipulation task is to get the unnested tibble into the format for correlation analysis. We need to `tidyr::spread()` the `ticker.symbols` to get them into the columns. Because not all the stocks have data for the full range of dates, we need to use `na.omit()` to remove rows with `NA` values.


{% highlight r %}
sp_500_hp_spread <- sp_500_hp_unnest %>%
    spread(key = ticker.symbol, value = Log.Returns) %>%
    na.omit()
sp_500_hp_spread
{% endhighlight %}



{% highlight text %}
## # A tibble: 1,112 × 21
##          Date          ALK         AVGO           CF         CTAS
##        <date>        <dbl>        <dbl>        <dbl>        <dbl>
## 1  2012-05-18  0.004338371 -0.001664171  0.017734777 -0.008185557
## 2  2012-05-21  0.012903344  0.029215930  0.056581530  0.018996528
## 3  2012-05-22 -0.009507724  0.011579415 -0.028509761  0.005629260
## 4  2012-05-23 -0.006802778  0.069483104  0.035526949  0.009312240
## 5  2012-05-24  0.048745839 -0.030594603  0.004531922 -0.001059804
## 6  2012-05-25  0.003539797  0.019495104 -0.009084481 -0.010929070
## 7  2012-05-29  0.004993460  0.038466250  0.039091368  0.008008585
## 8  2012-05-30 -0.015055694 -0.041184904 -0.003586116 -0.013922608
## 9  2012-05-31  0.020024227  0.001209099 -0.009431210 -0.005135786
## 10 2012-06-01 -0.014388679 -0.066191387 -0.053277940 -0.031381711
## # ... with 1,102 more rows, and 16 more variables: CXO <dbl>,
## #   DLPH <dbl>, DLR <dbl>, FB <dbl>, FBHS <dbl>, FISV <dbl>,
## #   GPN <dbl>, HCN <dbl>, HP <dbl>, IR <dbl>, LYB <dbl>, MPC <dbl>,
## #   PFG <dbl>, PRGO <dbl>, SWKS <dbl>, TSN <dbl>
…
