…
As an example, we can apply `get_stocklist()` to the first page of nine, which is "row=0" in the html path.


{% highlight r %}
get_stocklist(base_path, 0)
{% endhighlight %}



{% highlight text %}
## # A tibble: 251 × 2
##    symbol            company
## *   <chr>              <chr>
## 1    FLWS  1-800 FLOWERS.COM
## 2    TWOU           2U, Inc.
## 3     DDD         3D SYSTEMS
## 4    EGHT           8X 8 INC
## 5    SHLM         A SCHULMAN
## 6    ATEN A10 Networks, Inc.
## 7     AAC AAC Holdings, Inc.
## 8    AAON               AAON
## 9     AIR                AAR
## 10    AAN            AARON'S
## # ... with 241 more rows
…
The end result is a data frame of the Russell 2000 stocks:


{% highlight r %}
stocklist
{% endhighlight %}



{% highlight text %}
## # A tibble: 2,004 × 2
##    symbol            company
##     <chr>              <chr>
## 1    FLWS  1-800 FLOWERS.COM
## 2    TWOU           2U, INC.
## 3     DDD         3D SYSTEMS
## 4    EGHT           8X 8 INC
## 5    SHLM         A SCHULMAN
## 6    ATEN A10 NETWORKS, INC.
## 7     AAC AAC HOLDINGS, INC.
## 8    AAON               AAON
## 9     AIR                AAR
## 10    AAN            AARON'S
## # ... with 1,994 more rows
…
An example usage of `get_stock_prices()`:


{% highlight r %}
get_stock_prices("AAPL")
{% endhighlight %}



{% highlight text %}
## # A tibble: 2,496 × 7
##          Date  Open  High   Low Close    Volume Adjusted
##        <date> <dbl> <dbl> <dbl> <dbl>     <dbl>    <dbl>
## 1  2007-01-03 86.29 86.58 81.90 83.80 309579900 10.90416
## 2  2007-01-04 84.05 85.95 83.82 85.66 211815100 11.14619
## 3  2007-01-05 85.77 86.20 84.40 85.05 208685400 11.06681
## 4  2007-01-08 85.96 86.53 85.28 85.47 199276700 11.12147
## 5  2007-01-09 86.45 92.98 85.15 92.57 837324600 12.04533
## 6  2007-01-10 94.75 97.80 93.45 97.00 738220000 12.62176
## 7  2007-01-11 95.94 96.78 95.10 95.80 360063200 12.46562
## 8  2007-01-12 94.59 95.06 93.23 94.62 328172600 12.31207
## 9  2007-01-16 95.68 97.25 95.45 97.10 311019100 12.63477
## 10 2007-01-17 97.56 97.60 94.82 94.95 411565000 12.35501
## # ... with 2,486 more rows
{% endhighlight %}

And, an example usage of `get_log_returns()`:


{% highlight r %}
"AAPL" %>%
    get_stock_prices() %>%
    get_log_returns()
{% endhighlight %}



{% highlight text %}
## # A tibble: 2,496 × 2
##          Date  Log.Returns
##        <date>        <dbl>
## 1  2007-01-03  0.000000000
## 2  2007-01-04  0.021952915
## 3  2007-01-05 -0.007146656
## 4  2007-01-08  0.004926215
## 5  2007-01-09  0.079799676
## 6  2007-01-10  0.046745766
## 7  2007-01-11 -0.012448172
## 8  2007-01-12 -0.012393888
## 9  2007-01-16  0.025872526
## 10 2007-01-17 -0.022390960
## # ... with 2,486 more rows
…
And, a peek at the contents of `stocklist`:


{% highlight r %}
stocklist
{% endhighlight %}



{% highlight text %}
## # A tibble: 1,187 × 7
##    symbol             company         stock.prices
##     <chr>               <chr>               <list>
## 1    FLWS   1-800 FLOWERS.COM <tibble [2,496 × 7]>
## 2     DDD          3D SYSTEMS <tibble [2,496 × 7]>
## 3    EGHT            8X 8 INC <tibble [2,496 × 7]>
## 4    SHLM          A SCHULMAN <tibble [2,496 × 7]>
## 5    AAON                AAON <tibble [2,496 × 7]>
## 6     AIR                 AAR <tibble [2,496 × 7]>
## 7     AAN             AARON'S <tibble [2,496 × 7]>
## 8    ABAX              ABAXIS <tibble [2,495 × 7]>
## 9     ANF ABERCROMBIE & FITCH <tibble [2,496 × 7]>
## 10    ABM      ABM INDUSTRIES <tibble [2,496 × 7]>
## # ... with 1,177 more rows, and 4 more variables: log.returns <list>,
## #   mean.log.returns <dbl>, sd.log.returns <dbl>, n.trade.days <dbl>
{% endhighlight %}

What is `stocklist`? It's the historical stock prices and log returns for every stock in the Russell 2000 index. The stock prices and log returns are stored as nested lists inside the top-level data frame. We can access them like a list. Here's the stock prices for the first observation in the list, 1-800 FLOWERS.COM, ticker symbol FLWS:


{% highlight r %}
stocklist$stock.prices[[1]]
{% endhighlight %}



{% highlight text %}
## # A tibble: 2,496 × 7
##          Date  Open  High   Low Close Volume Adjusted
##        <date> <dbl> <dbl> <dbl> <dbl>  <dbl>    <dbl>
## 1  2007-01-03  6.19  6.50  6.13  6.20 416500     6.20
## 2  2007-01-04  6.21  6.49  6.13  6.40 213300     6.40
## 3  2007-01-05  6.35  6.36  6.15  6.16 236500     6.16
## 4  2007-01-08  6.19  6.24  6.11  6.12 127100     6.12
## 5  2007-01-09  6.10  6.16  5.88  6.01 257900     6.01
## 6  2007-01-10  5.93  6.05  5.84  5.97 356700     5.97
## 7  2007-01-11  5.98  6.10  5.95  6.00 181000     6.00
## 8  2007-01-12  6.00  6.13  5.99  6.04 211000     6.04
## 9  2007-01-16  6.04  6.21  6.03  6.15 212100     6.15
## 10 2007-01-17  6.15  6.24  6.14  6.20  98000     6.20
## # ... with 2,486 more rows
…
Then, we `unnest()` the high performers to get a one-level data frame. Voila, we have `mean.log.returns` by year for each stock. 


{% highlight r %}
# Unnest high performing stocks
hp_unnest <- hp %>%
    select(symbol, means.by.year) %>%
    unnest()
hp_unnest
{% endhighlight %}



{% highlight text %}
## # A tibble: 150 × 3
##    symbol  year mean.log.returns
##     <chr> <dbl>            <dbl>
## 1     MMS  2007     1.016679e-03
## 2     MMS  2008    -3.295602e-04
## 3     MMS  2009     1.448253e-03
## 4     MMS  2010     1.108940e-03
## 5     MMS  2011     9.544601e-04
## 6     MMS  2012     1.726920e-03
## 7     MMS  2013     1.329424e-03
## 8     MMS  2014     8.907859e-04
## 9     MMS  2015     1.121939e-04
## 10    MMS  2016     1.189651e-05
## # ... with 140 more rows
…
