…
{% highlight text %}
## # A tibble: 505 × 2
##    symbol             company
##     <chr>               <chr>
## 1     MMM          3M Company
## 2     ABT Abbott Laboratories
## 3    ABBV              AbbVie
## 4     ACN       Accenture plc
## 5    ATVI Activision Blizzard
## 6     AYI   Acuity Brands Inc
## 7    ADBE   Adobe Systems Inc
## 8     AAP  Advance Auto Parts
## 9     AES            AES Corp
## 10    AET           Aetna Inc
## # ... with 495 more rows
…
The result, `sp_500_processed_in_series` is a `tibble` (tidy data frame) that is nested with two levels: the first has the stock `symbol`, `company`, and `stock.prices`. The variable, `stock.prices`, contains the historical stock prices for each stock.


{% highlight r %}
sp_500_processed_in_series
{% endhighlight %}



{% highlight text %}
## # A tibble: 505 × 3
##    symbol             company         stock.prices
##     <chr>               <chr>               <list>
## 1     MMM          3M Company <tibble [2,506 × 7]>
## 2     ABT Abbott Laboratories <tibble [2,506 × 7]>
## 3    ABBV              AbbVie   <tibble [996 × 7]>
## 4     ACN       Accenture plc <tibble [2,506 × 7]>
## 5    ATVI Activision Blizzard <tibble [2,506 × 7]>
## 6     AYI   Acuity Brands Inc <tibble [2,506 × 7]>
## 7    ADBE   Adobe Systems Inc <tibble [2,506 × 7]>
## 8     AAP  Advance Auto Parts <tibble [2,506 × 7]>
## 9     AES            AES Corp <tibble [2,506 × 7]>
## 10    AET           Aetna Inc <tibble [2,506 × 7]>
## # ... with 495 more rows
{% endhighlight %}

Let's verify we got the daily stock prices for every stock. We'll use the `tidyr::unnest()` function to expand the `stock.prices` for the list of stocks. At 1,203,551 rows, the full list has been obtained.


{% highlight r %}
sp_500_processed_in_series %>% unnest()
{% endhighlight %}



{% highlight text %}
## # A tibble: 1,203,551 × 9
##    symbol    company       Date  Open  High   Low Close  Volume
##     <chr>      <chr>     <date> <dbl> <dbl> <dbl> <dbl>   <dbl>
## 1     MMM 3M Company 2007-01-03 77.53 78.85 77.38 78.26 3781500
## 2     MMM 3M Company 2007-01-04 78.40 78.41 77.45 77.95 2968400
## 3     MMM 3M Company 2007-01-05 77.89 77.90 77.01 77.42 2765200
## 4     MMM 3M Company 2007-01-08 77.42 78.04 76.97 77.59 2434500
## 5     MMM 3M Company 2007-01-09 78.00 78.23 77.44 77.68 1896800
## 6     MMM 3M Company 2007-01-10 77.31 77.96 77.04 77.85 1787500
## 7     MMM 3M Company 2007-01-11 78.05 79.03 77.88 78.65 2372500
## 8     MMM 3M Company 2007-01-12 78.41 79.50 78.22 79.36 2582200
## 9     MMM 3M Company 2007-01-16 79.48 79.62 78.92 79.56 2526600
## 10    MMM 3M Company 2007-01-17 79.33 79.51 78.75 78.91 2711300
## # ... with 1,203,541 more rows, and 1 more variables: Adjusted <dbl>
…
### Step 1: Add Groups <a class="anchor" id="add-groups"></a>

Let's add groups to `sp_500`. The groups are needed to divide the data across your `cl` number cores. For me, this is 8 cores. We create a `group` vector, which is a sequential vector of `1:cl` (1 to 8) repeated the length of the number of rows in `sp_500`. We then add the `group` vector to the `sp_500` tibble using the `dplyr::bind_cols()` function.


{% highlight r %}
group <- rep(1:cl, length.out = nrow(sp_500))
sp_500 <- bind_cols(tibble(group), sp_500)
sp_500
{% endhighlight %}



{% highlight text %}
## # A tibble: 505 × 3
##    group symbol             company
##    <int>  <chr>               <chr>
## 1      1    MMM          3M Company
## 2      2    ABT Abbott Laboratories
## 3      3   ABBV              AbbVie
## 4      4    ACN       Accenture plc
## 5      5   ATVI Activision Blizzard
## 6      6    AYI   Acuity Brands Inc
## 7      7   ADBE   Adobe Systems Inc
## 8      8    AAP  Advance Auto Parts
## 9      1    AES            AES Corp
## 10     2    AET           Aetna Inc
## # ... with 495 more rows
…
### Step 3: Partition by Group <a class="anchor" id="partition"></a>

Next is partitioning. Think of partitioning as sending a subset of the initial `tibble` to each of the clusters. The result is a partitioned data frame (`party_df`), which we explore next. Use the `partition()` function from the `multidplyr` package to split the `sp_500` list by group and send each group to a different cluster. 


{% highlight r %}
by_group <- sp_500 %>%
    partition(group, cluster = cluster)
by_group
{% endhighlight %}



{% highlight text %}
## Source: party_df [505 x 3]
## Groups: group
## Shards: 8 [63--64 rows]
## 
## # S3: party_df
##    group symbol                           company
##    <int>  <chr>                             <chr>
## 1      6    AYI                 Acuity Brands Inc
## 2      6    APD      Air Products & Chemicals Inc
## 3      6    ADS             Alliance Data Systems
## 4      6    AEP           American Electric Power
## 5      6   AMGN                         Amgen Inc
## 6      6   AAPL                        Apple Inc.
## 7      6    ADP         Automatic Data Processing
## 8      6     BK The Bank of New York Mellon Corp.
## 9      6   BIIB                  BIOGEN IDEC Inc.
## 10     6   AVGO                          Broadcom
## # ... with 495 more rows
…
Let's verify we got the list of stock prices. We'll use the `tidyr::unnest()` function to expand the `stock.prices` for the list of stocks. This is the same list as `sp_500_processed_in_series`, but it's sorted in order by which groups finished first. If we want to return the `tibble` in the same order of `sp_500`, we can easily pipe (`%>%`) `arrange(company)` after `as_tibble()` in the code chunk above.


{% highlight r %}
sp_500_processed_in_parallel %>% unnest()
{% endhighlight %}



{% highlight text %}
## Source: local data frame [1,204,056 x 10]
## Groups: group [8]
## 
##    group symbol           company       Date  Open  High   Low Close
##    <int>  <chr>             <chr>     <date> <dbl> <dbl> <dbl> <dbl>
## 1      6    AYI Acuity Brands Inc 2007-01-03 52.20 53.27 51.52 51.92
## 2      6    AYI Acuity Brands Inc 2007-01-04 53.00 53.39 49.69 52.32
## 3      6    AYI Acuity Brands Inc 2007-01-05 51.74 51.85 50.95 51.09
## 4      6    AYI Acuity Brands Inc 2007-01-08 51.15 52.64 50.70 52.01
## 5      6    AYI Acuity Brands Inc 2007-01-09 51.94 52.59 51.66 52.52
## 6      6    AYI Acuity Brands Inc 2007-01-10 52.13 53.61 52.01 53.48
## 7      6    AYI Acuity Brands Inc 2007-01-11 53.60 55.47 53.52 55.08
## 8      6    AYI Acuity Brands Inc 2007-01-12 54.84 55.68 54.61 55.65
## 9      6    AYI Acuity Brands Inc 2007-01-16 55.65 56.56 55.40 55.61
## 10     6    AYI Acuity Brands Inc 2007-01-17 55.56 56.32 55.20 55.90
## # ... with 1,204,046 more rows, and 2 more variables: Volume <dbl>,
## #   Adjusted <dbl>
…
