…
Let's check out the key ratios by unnesting.


{% highlight r %}
JPM_key_ratios %>%
    unnest()
{% endhighlight %}



{% highlight text %}
## # A tibble: 890 × 6
##       section sub.section group        category       date  value
##         <chr>       <chr> <dbl>           <chr>     <date>  <dbl>
## 1  Financials  Financials     1 Revenue USD Mil 2006-12-01  61437
## 2  Financials  Financials     1 Revenue USD Mil 2007-12-01  71372
## 3  Financials  Financials     1 Revenue USD Mil 2008-12-01  67252
## 4  Financials  Financials     1 Revenue USD Mil 2009-12-01 100434
## 5  Financials  Financials     1 Revenue USD Mil 2010-12-01 102694
## 6  Financials  Financials     1 Revenue USD Mil 2011-12-01  97234
## 7  Financials  Financials     1 Revenue USD Mil 2012-12-01  97031
## 8  Financials  Financials     1 Revenue USD Mil 2013-12-01  97367
## 9  Financials  Financials     1 Revenue USD Mil 2014-12-01  95112
## 10 Financials  Financials     1 Revenue USD Mil 2015-12-01  93543
## # ... with 880 more rows
…
The `rollapply` functions from the `zoo` package are useful in calculating rolling averages, medians, maximums, etc, which are integral in separating the trend from the noise from time-series. One common technique is use simple moving averages to determine the crossover (which was discussed in my [last post](http://www.mattdancho.com/code-tools/2017/01/01/tidyquant-introduction.html) on `tidyquant`). A potential issue is that an average is more susceptible to outliers. Instead of using averages, let's use the zoo functions to get the 15-day and 50-day rolling medians, which are more resistent to noise. 

First, we get the past year of stock prices for AAPL using `tq_get(get = "stock.prices", from = today - years(1))`. 


{% highlight r %}
AAPL_prices <- tq_get("AAPL", get = "stock.prices", from = today() - years(1))
AAPL_prices
{% endhighlight %}



{% highlight text %}
## # A tibble: 252 × 7
##          date   open   high   low  close   volume adjusted
##        <date>  <dbl>  <dbl> <dbl>  <dbl>    <dbl>    <dbl>
## 1  2016-01-08  98.55  99.11 96.76  96.96 70798000 94.84967
## 2  2016-01-11  98.97  99.06 97.34  98.53 49739400 96.38550
## 3  2016-01-12 100.55 100.69 98.84  99.96 49154200 97.78438
## 4  2016-01-13 100.32 101.19 97.30  97.39 62439600 95.27031
## 5  2016-01-14  97.96 100.48 95.74  99.52 63170100 97.35395
## 6  2016-01-15  96.20  97.71 95.36  97.13 79010000 95.01597
## 7  2016-01-19  98.41  98.65 95.50  96.66 53087700 94.55621
## 8  2016-01-20  95.10  98.19 93.42  96.79 72334400 94.68337
## 9  2016-01-21  97.06  97.88 94.94  96.30 52161500 94.20404
## 10 2016-01-22  98.63 101.46 98.37 101.42 65800500 99.21260
## # ... with 242 more rows
…
{% highlight r %}
AAPL_prices <- AAPL_prices %>%
    tq_mutate(ohlc_fun = Cl, mutate_fun = rollapply, width = 15, FUN = median) %>%
    tq_mutate(ohlc_fun = Cl, mutate_fun = rollapply, width = 50, FUN = median) %>%
    rename(median.15 = rollapply,
           median.50 = rollapply.1)
AAPL_prices
{% endhighlight %}



{% highlight text %}
## # A tibble: 252 × 9
##          date   open   high   low  close   volume adjusted median.15
##        <date>  <dbl>  <dbl> <dbl>  <dbl>    <dbl>    <dbl>     <dbl>
## 1  2016-01-08  98.55  99.11 96.76  96.96 70798000 94.84967        NA
## 2  2016-01-11  98.97  99.06 97.34  98.53 49739400 96.38550        NA
## 3  2016-01-12 100.55 100.69 98.84  99.96 49154200 97.78438        NA
## 4  2016-01-13 100.32 101.19 97.30  97.39 62439600 95.27031        NA
## 5  2016-01-14  97.96 100.48 95.74  99.52 63170100 97.35395        NA
## 6  2016-01-15  96.20  97.71 95.36  97.13 79010000 95.01597        NA
## 7  2016-01-19  98.41  98.65 95.50  96.66 53087700 94.55621        NA
## 8  2016-01-20  95.10  98.19 93.42  96.79 72334400 94.68337        NA
## 9  2016-01-21  97.06  97.88 94.94  96.30 52161500 94.20404        NA
## 10 2016-01-22  98.63 101.46 98.37 101.42 65800500 99.21260        NA
## # ... with 242 more rows, and 1 more variables: median.50 <dbl>
…
