…
We are now up to 28 features (including the original index) that can be data mined for relationships with the target (response or independent variable).


{% highlight r %}
idx %>%
    tk_get_timeseries_signature()
{% endhighlight %}



{% highlight text %}
## # A tibble: 1,008 × 28
##         index  index.num   diff  year  half quarter month month.xts
##        <date>      <int>  <int> <int> <int>   <int> <int>     <int>
## 1  2013-01-02 1357084800     NA  2013     1       1     1         0
## 2  2013-01-03 1357171200  86400  2013     1       1     1         0
## 3  2013-01-04 1357257600  86400  2013     1       1     1         0
## 4  2013-01-07 1357516800 259200  2013     1       1     1         0
## 5  2013-01-08 1357603200  86400  2013     1       1     1         0
## 6  2013-01-09 1357689600  86400  2013     1       1     1         0
## 7  2013-01-10 1357776000  86400  2013     1       1     1         0
## 8  2013-01-11 1357862400  86400  2013     1       1     1         0
## 9  2013-01-14 1358121600 259200  2013     1       1     1         0
## 10 2013-01-15 1358208000  86400  2013     1       1     1         0
## # ... with 998 more rows, and 20 more variables: month.lbl <ord>,
## #   day <int>, hour <int>, minute <int>, second <int>, hour12 <int>,
## #   am.pm <int>, wday <int>, wday.xts <int>, wday.lbl <ord>,
## #   mday <int>, qday <int>, yday <int>, mweek <int>, week <int>,
## #   week.iso <int>, week2 <int>, week3 <int>, week4 <int>,
## #   mday7 <dbl>
…
