…
# Create a vector of stock symbols
FANG_symbols <- c("FB", "AMZN", "NFLX", "GOOG")

# Pass symbols to tq_get to get daily prices
FANG_data_d <- FANG_symbols %>%
    tq_get(get = "stock.prices", from = "2014-01-01", to = "2016-12-31")

# Show the result
FANG_data_d
{% endhighlight %}



{% highlight text %}
## # A tibble: 3,024 x 8
##    symbol       date  open  high   low close   volume adjusted
##     <chr>     <date> <dbl> <dbl> <dbl> <dbl>    <dbl>    <dbl>
##  1     FB 2014-01-02 54.83 55.22 54.19 54.71 43195500    54.71
##  2     FB 2014-01-03 55.02 55.65 54.53 54.56 38246200    54.56
##  3     FB 2014-01-06 54.42 57.26 54.05 57.20 68852600    57.20
##  4     FB 2014-01-07 57.70 58.55 57.22 57.92 77207400    57.92
##  5     FB 2014-01-08 57.60 58.41 57.23 58.23 56682400    58.23
##  6     FB 2014-01-09 58.65 58.96 56.65 57.22 92253300    57.22
##  7     FB 2014-01-10 57.13 58.30 57.06 57.94 42449500    57.94
##  8     FB 2014-01-13 57.91 58.25 55.38 55.91 63010900    55.91
##  9     FB 2014-01-14 56.46 57.78 56.10 57.74 37503600    57.74
## 10     FB 2014-01-15 57.98 58.57 57.27 57.60 33663400    57.60
## # ... with 3,014 more rows
…
# Pass symbols to tq_get to get economic data
FRED_data_m <- FRED_symbols %>%
    tq_get(get="economic.data", from = "2001-04-01")

# Show results
FRED_data_m
{% endhighlight %}



{% highlight text %}
## # A tibble: 260 x 3
##           symbol       date  price
##            <chr>     <date>  <int>
##  1 ETOTALUSQ176N 2001-04-01 117786
##  2 ETOTALUSQ176N 2001-07-01 118216
##  3 ETOTALUSQ176N 2001-10-01 118635
##  4 ETOTALUSQ176N 2002-01-01 119061
##  5 ETOTALUSQ176N 2002-04-01 119483
##  6 ETOTALUSQ176N 2002-07-01 119909
##  7 ETOTALUSQ176N 2002-10-01 120350
##  8 ETOTALUSQ176N 2003-01-01 120792
##  9 ETOTALUSQ176N 2003-04-01 121233
## 10 ETOTALUSQ176N 2003-07-01 121682
## # ... with 250 more rows
…
FANG_data_m
{% endhighlight %}



{% highlight text %}
## # A tibble: 144 x 3
## # Groups:   symbol [4]
##    symbol       date adjusted
##     <chr>     <date>    <dbl>
##  1     FB 2014-01-31    62.57
##  2     FB 2014-02-28    68.46
##  3     FB 2014-03-31    60.24
##  4     FB 2014-04-30    59.78
##  5     FB 2014-05-30    63.30
##  6     FB 2014-06-30    67.29
##  7     FB 2014-07-31    72.65
##  8     FB 2014-08-29    74.82
##  9     FB 2014-09-30    79.04
## 10     FB 2014-10-31    74.99
## # ... with 134 more rows
…
{% highlight text %}
## # A tibble: 3,024 x 8
## # Groups:   symbol [4]
##    symbol       date adjusted  lag1  lag2  lag3  lag4  lag5
##     <chr>     <date>    <dbl> <dbl> <dbl> <dbl> <dbl> <dbl>
##  1     FB 2014-01-02    54.71    NA    NA    NA    NA    NA
##  2     FB 2014-01-03    54.56 54.71    NA    NA    NA    NA
##  3     FB 2014-01-06    57.20 54.56 54.71    NA    NA    NA
##  4     FB 2014-01-07    57.92 57.20 54.56 54.71    NA    NA
##  5     FB 2014-01-08    58.23 57.92 57.20 54.56 54.71    NA
##  6     FB 2014-01-09    57.22 58.23 57.92 57.20 54.56 54.71
##  7     FB 2014-01-10    57.94 57.22 58.23 57.92 57.20 54.56
##  8     FB 2014-01-13    55.91 57.94 57.22 58.23 57.92 57.20
##  9     FB 2014-01-14    57.74 55.91 57.94 57.22 58.23 57.92
## 10     FB 2014-01-15    57.60 57.74 55.91 57.94 57.22 58.23
## # ... with 3,014 more rows
…
{% highlight text %}
## # A tibble: 3,024 x 10
## # Groups:   symbol [4]
##    symbol       date adjusted   X0.  X2.5.  X25.  X50.  X75. X97.5.
##     <chr>     <date>    <dbl> <dbl>  <dbl> <dbl> <dbl> <dbl>  <dbl>
##  1     FB 2014-01-02    54.71    NA     NA    NA    NA    NA     NA
##  2     FB 2014-01-03    54.56    NA     NA    NA    NA    NA     NA
##  3     FB 2014-01-06    57.20    NA     NA    NA    NA    NA     NA
##  4     FB 2014-01-07    57.92    NA     NA    NA    NA    NA     NA
##  5     FB 2014-01-08    58.23 54.56 54.575 54.71 57.20 57.92 58.199
##  6     FB 2014-01-09    57.22 54.56 54.824 57.20 57.22 57.92 58.199
##  7     FB 2014-01-10    57.94 57.20 57.202 57.22 57.92 57.94 58.201
##  8     FB 2014-01-13    55.91 55.91 56.041 57.22 57.92 57.94 58.201
##  9     FB 2014-01-14    57.74 55.91 56.041 57.22 57.74 57.94 58.201
## 10     FB 2014-01-15    57.60 55.91 56.041 57.22 57.60 57.74 57.920
## # ... with 3,014 more rows, and 1 more variables: X100. <dbl>
…
