…
Let's take `av_get()` for a test spin!

#### Time Series Data

We can get __real-time intraday stock data__ by setting `av_fun = "TIME_SERIES_INTRADAY"` and the `interval` to one of the available resolutions ("1min", "5min", "15min", "30min" or "60min"). We can also get daily, daily adjusted, weekly and monthly time series. Note that only 100 rows are returned by default, add the parameter `outputsize = "full"` to get the full number of rows. 


{% highlight r %}
av_get(symbol = "MSFT", av_fun = "TIME_SERIES_INTRADAY", interval = "15min", outputsize = "compact")
{% endhighlight %}



{% highlight text %}
## # A tibble: 100 x 6
##              timestamp   open    high    low  close volume
##                 <dttm>  <dbl>   <dbl>  <dbl>  <dbl>  <int>
##  1 2017-08-29 11:30:00 72.800 72.8601 72.710 72.725 250459
##  2 2017-08-29 11:45:00 72.730 72.8600 72.680 72.850 354759
##  3 2017-08-29 12:00:00 72.850 72.9400 72.835 72.870 328545
##  4 2017-08-29 12:15:00 72.870 72.9300 72.870 72.890 157598
##  5 2017-08-29 12:30:00 72.900 72.9300 72.860 72.890 193864
##  6 2017-08-29 12:45:00 72.890 72.9300 72.860 72.920 140217
##  7 2017-08-29 13:00:00 72.923 73.0000 72.900 72.910 163803
##  8 2017-08-29 13:15:00 72.910 72.9600 72.880 72.890 132402
##  9 2017-08-29 13:30:00 72.890 73.0100 72.860 72.985 470568
## 10 2017-08-29 13:45:00 72.985 73.0199 72.920 72.980 292979
## # ... with 90 more rows
{% endhighlight %}

#### Technical Indicators

A full suite of __real-time and historical__ technical indicators are available. The "SMA" (Simple Moving Average) is shown below.  


{% highlight r %}
av_get(symbol = "MSFT", av_fun = "SMA", interval = "monthly", time_period = 60, series_type = "close")
{% endhighlight %}



{% highlight text %}
## # A tibble: 153 x 2
##              timestamp     sma
##                 <dttm>   <dbl>
##  1 2005-01-31 05:00:00 47.5243
##  2 2005-02-28 05:00:00 46.4542
##  3 2005-03-31 05:00:00 45.0862
##  4 2005-04-29 04:00:00 44.3453
##  5 2005-05-31 04:00:00 43.7327
##  6 2005-06-30 04:00:00 42.8133
##  7 2005-07-29 04:00:00 42.0767
##  8 2005-08-31 04:00:00 41.3695
##  9 2005-09-30 04:00:00 40.7932
## 10 2005-10-31 05:00:00 40.0737
## # ... with 143 more rows
{% endhighlight %}

#### Sector Performances

Various __real-time and historical sector performances__ are available. 


{% highlight r %}
av_get(av_fun = "SECTOR")
{% endhighlight %}



{% highlight text %}
## # A tibble: 106 x 3
##                       rank.group                     sector value
##                            <chr>                      <chr> <dbl>
##  1 Rank A: Real-Time Performance                     Energy  0.81
##  2 Rank A: Real-Time Performance                  Materials  0.63
##  3 Rank A: Real-Time Performance     Consumer Discretionary  0.46
##  4 Rank A: Real-Time Performance                 Financials  0.44
##  5 Rank A: Real-Time Performance           Consumer Staples  0.42
##  6 Rank A: Real-Time Performance                Industrials  0.15
##  7 Rank A: Real-Time Performance Telecommunication Services  0.04
##  8 Rank A: Real-Time Performance     Information Technology -0.05
##  9 Rank A: Real-Time Performance                Real Estate -0.08
## 10 Rank A: Real-Time Performance                Health Care -0.08
## # ... with 96 more rows
…
