…
__New Option 1: Passing a character vector of symbols__:

Send a character vector in the form `c("X", "Y", "Z")` to `tq_get`. A new column is generated, `symbol.x`, with the symbols that were passed to the `x` argument. 


{% highlight r %}
c("FB", "GOOG", "AAPL") %>%
    tq_get(get = "stock.prices")
{% endhighlight %}



{% highlight text %}
## # A tibble: 6,238 × 8
##    symbol.x       date  open  high   low close    volume adjusted
##       <chr>     <date> <dbl> <dbl> <dbl> <dbl>     <dbl>    <dbl>
## 1        FB 2012-05-18 42.05 45.00 38.00 38.23 573576400    38.23
## 2        FB 2012-05-21 36.53 36.66 33.00 34.03 168192700    34.03
## 3        FB 2012-05-22 32.61 33.59 30.94 31.00 101786600    31.00
## 4        FB 2012-05-23 31.37 32.50 31.36 32.00  73600000    32.00
## 5        FB 2012-05-24 32.95 33.21 31.77 33.03  50237200    33.03
## 6        FB 2012-05-25 32.90 32.95 31.11 31.91  37149800    31.91
## 7        FB 2012-05-29 31.48 31.69 28.65 28.84  78063400    28.84
## 8        FB 2012-05-30 28.70 29.55 27.86 28.19  57267900    28.19
## 9        FB 2012-05-31 28.55 29.67 26.83 29.60 111639200    29.60
## 10       FB 2012-06-01 28.89 29.15 27.39 27.72  41855500    27.72
## # ... with 6,228 more rows
…
Then get stock prices. Note that symbols must be in the first column.


{% highlight r %}
NASDAQ_first_three <- NASDAQ_first_three %>%
    tq_get(get = "stock.prices")
NASDAQ_first_three
{% endhighlight %}



{% highlight text %}
## # A tibble: 6,083 × 9
##    symbol company       date  open  high   low close  volume adjusted
##     <chr>   <chr>     <date> <dbl> <dbl> <dbl> <dbl>   <dbl>    <dbl>
## 1     MMM      3M 2007-01-03 77.53 78.85 77.38 78.26 3781500 60.31064
## 2     MMM      3M 2007-01-04 78.40 78.41 77.45 77.95 2968400 60.07174
## 3     MMM      3M 2007-01-05 77.89 77.90 77.01 77.42 2765200 59.66330
## 4     MMM      3M 2007-01-08 77.42 78.04 76.97 77.59 2434500 59.79431
## 5     MMM      3M 2007-01-09 78.00 78.23 77.44 77.68 1896800 59.86367
## 6     MMM      3M 2007-01-10 77.31 77.96 77.04 77.85 1787500 59.99468
## 7     MMM      3M 2007-01-11 78.05 79.03 77.88 78.65 2372500 60.61120
## 8     MMM      3M 2007-01-12 78.41 79.50 78.22 79.36 2582200 61.15835
## 9     MMM      3M 2007-01-16 79.48 79.62 78.92 79.56 2526600 61.31248
## 10    MMM      3M 2007-01-17 79.33 79.51 78.75 78.91 2711300 60.81156
## # ... with 6,073 more rows
…
We can also use `tq_mutate` and `tq_transform` with `dplyr::group_by` to scale analyses! Thanks to some great feedback from [@dvaughan32](https://twitter.com/dvaughan32), the `col_rename` argument is available to conveniently rename the newly transformed / mutated columns.


{% highlight r %}
NASDAQ_first_three %>%
    group_by(symbol) %>%
    tq_mutate(ohlc_fun = Ad, mutate_fun = SMA, n = 5, col_rename = "SMA.5") %>%
    select(-(open:volume))
{% endhighlight %}



{% highlight text %}
## Source: local data frame [6,083 x 5]
## Groups: symbol [3]
## 
##    symbol company       date adjusted    SMA.5
##     <chr>   <chr>     <date>    <dbl>    <dbl>
## 1     MMM      3M 2007-01-03 60.31064       NA
## 2     MMM      3M 2007-01-04 60.07174       NA
## 3     MMM      3M 2007-01-05 59.66330       NA
## 4     MMM      3M 2007-01-08 59.79431       NA
## 5     MMM      3M 2007-01-09 59.86367 59.94073
## 6     MMM      3M 2007-01-10 59.99468 59.87754
## 7     MMM      3M 2007-01-11 60.61120 59.98543
## 8     MMM      3M 2007-01-12 61.15835 60.28444
## 9     MMM      3M 2007-01-16 61.31248 60.58807
## 10    MMM      3M 2007-01-17 60.81156 60.77765
## # ... with 6,073 more rows
…
