…
We'll get data using the `tq_get()` function from `tidyquant`. The data comes from FRED: [Beer, Wine, and Distilled Alcoholic Beverages Sales](https://fred.stlouisfed.org/series/S4248SM144NCEN).


{% highlight r %}
# Beer, Wine, Distilled Alcoholic Beverages, in Millions USD
beer_sales_tbl <- tq_get("S4248SM144NCEN", get = "economic.data", from = "2010-01-01", to = "2017-10-27")

beer_sales_tbl
{% endhighlight %}



{% highlight text %}
## # A tibble: 92 x 2
##          date price
##        <date> <int>
##  1 2010-01-01  6558
##  2 2010-02-01  7481
##  3 2010-03-01  9475
##  4 2010-04-01  9424
##  5 2010-05-01  9351
##  6 2010-06-01 10552
##  7 2010-07-01  9077
##  8 2010-08-01  9273
##  9 2010-09-01  9420
## 10 2010-10-01  9413
## # ... with 82 more rows
…
