…
{% highlight r %}
# Tidying up the weather data
weather <- bind_rows(list(NYC = NYC, SFO = SFO), .id = "City") %>%
  as_tibble()
weather
{% endhighlight %}



{% highlight text %}
## # A tibble: 19,706 x 3
##     City                Time Temperature
##    <chr>               <chr>       <dbl>
##  1   NYC 2013-01-01 00:51:00        41.0
##  2   NYC 2013-01-01 01:51:00        39.9
##  3   NYC 2013-01-01 02:51:00        41.0
##  4   NYC 2013-01-01 03:51:00        41.0
##  5   NYC 2013-01-01 04:51:00        41.0
##  6   NYC 2013-01-01 05:51:00        39.9
##  7   NYC 2013-01-01 06:51:00        39.9
##  8   NYC 2013-01-01 07:51:00        39.9
##  9   NYC 2013-01-01 08:51:00        39.9
## 10   NYC 2013-01-01 09:51:00        39.9
## # ... with 19,696 more rows
…
