…
## Step 2: Use tq_get to get stock prices <a class="anchor" id="step2"></a>

We'll start by getting the last year of stock prices. We use the tidyquant `tq_get()` function for all data retrieval. Set the parameter `get = "stock.prices"` to tell tidyquant we want the historical stock prices. We can use the `from` argument to pass a date as the start of the collection, which accepts character string in the form of "YYYY-MM-DD". We can use `lubridate` functions `today()` and `years()` to get the date from one year ago.


{% highlight r %}
from <- today() - years(1)
AAPL <- tq_get("AAPL", get = "stock.prices", from = from)
AAPL
{% endhighlight %}



{% highlight text %}
## # A tibble: 252 × 7
##          date   open   high    low  close   volume  adjusted
##        <date>  <dbl>  <dbl>  <dbl>  <dbl>    <dbl>     <dbl>
## 1  2016-01-04 102.61 105.37 102.00 105.35 67649400 103.05706
## 2  2016-01-05 105.75 105.85 102.41 102.71 55791000 100.47452
## 3  2016-01-06 100.56 102.37  99.87 100.70 68457400  98.50827
## 4  2016-01-07  98.68 100.13  96.43  96.45 81094400  94.35077
## 5  2016-01-08  98.55  99.11  96.76  96.96 70798000  94.84967
## 6  2016-01-11  98.97  99.06  97.34  98.53 49739400  96.38550
## 7  2016-01-12 100.55 100.69  98.84  99.96 49154200  97.78438
## 8  2016-01-13 100.32 101.19  97.30  97.39 62439600  95.27031
## 9  2016-01-14  97.96 100.48  95.74  99.52 63170100  97.35395
## 10 2016-01-15  96.20  97.71  95.36  97.13 79010000  95.01597
## # ... with 242 more rows
…
An example with `SMA()` from the `TTR` package helps solidify how it works. Reviewing the documentation for `SMA`, we see that the function, `SMA(x, n = 10, ...)`, accepts `x` a price or volume and `n` a number of periods to average over. For the 15-day simple moving average, we would pass a set of prices, either "close" or "adjusted", and `n = 15` for 15 days. In OHLC notation `x_fun = Cl` for "close" or `x_fun = Ad` for adjusted. The `mutate_fun = SMA`, and we pass `n = 15` as an additional argument. Shown below, we pipe (`%>%`) our tibble of AAPL stock prices to `tq_mutate(x_fun = Cl, mutate_fun = SMA, n = 15)`, which creates an additional column with the simple moving average of the close prices. 


{% highlight r %}
AAPL %>%
    tq_mutate(x_fun = Cl, mutate_fun = SMA, n = 15)
{% endhighlight %}



{% highlight text %}
## # A tibble: 252 × 8
##          date   open   high    low  close   volume  adjusted   SMA
##        <date>  <dbl>  <dbl>  <dbl>  <dbl>    <dbl>     <dbl> <dbl>
## 1  2016-01-04 102.61 105.37 102.00 105.35 67649400 103.05706    NA
## 2  2016-01-05 105.75 105.85 102.41 102.71 55791000 100.47452    NA
## 3  2016-01-06 100.56 102.37  99.87 100.70 68457400  98.50827    NA
## 4  2016-01-07  98.68 100.13  96.43  96.45 81094400  94.35077    NA
## 5  2016-01-08  98.55  99.11  96.76  96.96 70798000  94.84967    NA
## 6  2016-01-11  98.97  99.06  97.34  98.53 49739400  96.38550    NA
## 7  2016-01-12 100.55 100.69  98.84  99.96 49154200  97.78438    NA
## 8  2016-01-13 100.32 101.19  97.30  97.39 62439600  95.27031    NA
## 9  2016-01-14  97.96 100.48  95.74  99.52 63170100  97.35395    NA
## 10 2016-01-15  96.20  97.71  95.36  97.13 79010000  95.01597    NA
## # ... with 242 more rows
…
We need both the 15-day and the 50-day moving average, which is two steps with the pipe. I `rename` in between steps so the column names are more descriptive.


{% highlight r %}
AAPL %>%
    tq_mutate(x_fun = Cl, mutate_fun = SMA, n = 15) %>%
    rename(SMA.15 = SMA) %>%
    tq_mutate(x_fun = Cl, mutate_fun = SMA, n = 50) %>%
    rename(SMA.50 = SMA)
{% endhighlight %}



{% highlight text %}
## # A tibble: 252 × 9
##          date   open   high    low  close   volume  adjusted SMA.15
##        <date>  <dbl>  <dbl>  <dbl>  <dbl>    <dbl>     <dbl>  <dbl>
## 1  2016-01-04 102.61 105.37 102.00 105.35 67649400 103.05706     NA
## 2  2016-01-05 105.75 105.85 102.41 102.71 55791000 100.47452     NA
## 3  2016-01-06 100.56 102.37  99.87 100.70 68457400  98.50827     NA
## 4  2016-01-07  98.68 100.13  96.43  96.45 81094400  94.35077     NA
## 5  2016-01-08  98.55  99.11  96.76  96.96 70798000  94.84967     NA
## 6  2016-01-11  98.97  99.06  97.34  98.53 49739400  96.38550     NA
## 7  2016-01-12 100.55 100.69  98.84  99.96 49154200  97.78438     NA
## 8  2016-01-13 100.32 101.19  97.30  97.39 62439600  95.27031     NA
## 9  2016-01-14  97.96 100.48  95.74  99.52 63170100  97.35395     NA
## 10 2016-01-15  96.20  97.71  95.36  97.13 79010000  95.01597     NA
## # ... with 242 more rows, and 1 more variables: SMA.50 <dbl>
…
For the `SMA()` function, we don't need the `.y` argument, but we can use the XY variant to accomplish the same task as the OHLC variant. The operation is the same except instead of `x_fun = Cl` we replace with `.x = close` (the name of the column being passed to the mutation function).


{% highlight r %}
AAPL %>%
    tq_mutate_xy(.x = close, mutate_fun = SMA, n = 15) %>%
    rename(SMA.15 = SMA) %>%
    tq_mutate_xy(.x = close, mutate_fun = SMA, n = 50) %>%
    rename(SMA.50 = SMA)
{% endhighlight %}



{% highlight text %}
## # A tibble: 252 × 9
##          date   open   high    low  close   volume  adjusted SMA.15
##        <date>  <dbl>  <dbl>  <dbl>  <dbl>    <dbl>     <dbl>  <dbl>
## 1  2016-01-04 102.61 105.37 102.00 105.35 67649400 103.05706     NA
## 2  2016-01-05 105.75 105.85 102.41 102.71 55791000 100.47452     NA
## 3  2016-01-06 100.56 102.37  99.87 100.70 68457400  98.50827     NA
## 4  2016-01-07  98.68 100.13  96.43  96.45 81094400  94.35077     NA
## 5  2016-01-08  98.55  99.11  96.76  96.96 70798000  94.84967     NA
## 6  2016-01-11  98.97  99.06  97.34  98.53 49739400  96.38550     NA
## 7  2016-01-12 100.55 100.69  98.84  99.96 49154200  97.78438     NA
## 8  2016-01-13 100.32 101.19  97.30  97.39 62439600  95.27031     NA
## 9  2016-01-14  97.96 100.48  95.74  99.52 63170100  97.35395     NA
## 10 2016-01-15  96.20  97.71  95.36  97.13 79010000  95.01597     NA
## # ... with 242 more rows, and 1 more variables: SMA.50 <dbl>
…
We have our 15-day and 50-day simple moving averages. Now all we need to do is visualize using `ggplot2`. The format of the data will need to be tidy, which requires us to use `gather()` from the `tidyr` package to shift the close, SMA.15, and SMA.50 columns into a long form with type and price. The code and final data form is shown below.



{% highlight r %}
AAPL %>%
    select(date, close, SMA.15, SMA.50) %>%
    gather(key = type, value = price, close:SMA.50)
{% endhighlight %}



{% highlight text %}
## # A tibble: 756 × 3
##          date  type  price
##        <date> <chr>  <dbl>
## 1  2016-01-04 close 105.35
## 2  2016-01-05 close 102.71
## 3  2016-01-06 close 100.70
## 4  2016-01-07 close  96.45
## 5  2016-01-08 close  96.96
## 6  2016-01-11 close  98.53
## 7  2016-01-12 close  99.96
## 8  2016-01-13 close  97.39
## 9  2016-01-14 close  99.52
## 10 2016-01-15 close  97.13
## # ... with 746 more rows
…
