…
{% highlight r %}
stock_returns_quandl <- stock_list_quandl %>%
    tq_get(get          = "quandl",
           from         = "2007-01-01",
           to           = "2016-12-31",
           transform    = "rdiff",
           collapse     = "monthly",
           column_index = 11) %>%
    rename(monthly.returns = adj.close)
stock_returns_quandl
{% endhighlight %}


{% highlight text %}
## # A tibble: 476 × 4
##         code symbol       date monthly.returns
##        <chr>  <chr>     <date>           <dbl>
## 1  WIKI/AAPL   AAPL 2016-12-31     0.047468354
## 2  WIKI/AAPL   AAPL 2016-11-30    -0.025893958
## 3  WIKI/AAPL   AAPL 2016-10-31     0.005045587
## 4  WIKI/AAPL   AAPL 2016-09-30     0.064750236
## 5  WIKI/AAPL   AAPL 2016-08-31     0.023618063
## 6  WIKI/AAPL   AAPL 2016-07-31     0.090062762
## 7  WIKI/AAPL   AAPL 2016-06-30    -0.042659724
## 8  WIKI/AAPL   AAPL 2016-05-31     0.071799336
## 9  WIKI/AAPL   AAPL 2016-04-30    -0.139921094
## 10 WIKI/AAPL   AAPL 2016-03-31     0.127210673
## # ... with 466 more rows
…
The third result, "FACTORS_M", is what we need. We can retrieve with `tq_get(get = "quandl")` by piping (`%>%`) `"KFRENCH/FACTORS_M"`. (Remember that the format is always database code / dataset code). We'll tack on `collapse = "monthly"` to ensure the dates match up with the returns, `stock_returns_quandl`.


{% highlight r %}
# Get Fama French 3 Factor Data
fama_french_3_M <- "KFRENCH/FACTORS_M" %>%
    tq_get(get      = "quandl",
           collapse = "monthly")
fama_french_3_M
{% endhighlight %}


{% highlight text %}
## # A tibble: 1,087 × 5
##          date mkt.rf   smb   hml    rf
##        <date>  <dbl> <dbl> <dbl> <dbl>
## 1  2017-01-31   1.94 -0.95 -2.76  0.04
## 2  2016-12-31   1.81 -0.04  3.52  0.03
## 3  2016-11-30   4.86  5.68  8.44  0.01
## 4  2016-10-31  -2.02 -4.41  4.15  0.02
## 5  2016-09-30   0.25  2.00 -1.34  0.02
## 6  2016-08-31   0.50  0.94  3.18  0.02
## 7  2016-07-31   3.95  2.90 -0.98  0.02
## 8  2016-06-30  -0.05  0.61 -1.49  0.02
## 9  2016-05-31   1.78 -0.27 -1.79  0.01
## 10 2016-04-30   0.92  0.68  3.25  0.01
## # ... with 1,077 more rows
…
{% highlight r %}
# Aggregating weighted portfolio returns
portfolio_returns <- stock_returns_quandl %>%
    tq_portfolio(assets_col   = symbol,
                 returns_col  = monthly.returns,
                 weights      = weights_tib,
                 rebalance_on = NA,
                 col_rename   = "monthly.returns")
portfolio_returns
{% endhighlight %}



{% highlight text %}
## # A tibble: 119 × 2
##          date monthly.returns
##        <date>           <dbl>
## 1  2007-02-28    -0.034414463
## 2  2007-03-31     0.022735121
## 3  2007-04-30     0.050631578
## 4  2007-05-31     0.068295584
## 5  2007-06-30     0.028425228
## 6  2007-07-31     0.002249988
## 7  2007-08-31    -0.001170495
## 8  2007-09-30     0.077241302
## 9  2007-10-31     0.113769305
## 10 2007-11-30    -0.076217903
## # ... with 109 more rows
…
##### Join Portfolio Returns and Fama French Data

We can join the two data sets by the "date" column in each using `left_join` from the `dplyr` package. 


{% highlight r %}
portfolio_fama_french <- left_join(portfolio_returns, fama_french_3_M, by = "date")
portfolio_fama_french
{% endhighlight %}



{% highlight text %}
## # A tibble: 119 × 6
##          date monthly.returns mkt.rf   smb   hml    rf
##        <date>           <dbl>  <dbl> <dbl> <dbl> <dbl>
## 1  2007-02-28    -0.034414463  -1.96  1.32 -0.10  0.38
## 2  2007-03-31     0.022735121   0.68 -0.06 -0.23  0.43
## 3  2007-04-30     0.050631578   3.49 -2.07 -1.15  0.44
## 4  2007-05-31     0.068295584   3.24 -0.01 -0.07  0.41
## 5  2007-06-30     0.028425228  -1.96  0.79 -1.11  0.40
## 6  2007-07-31     0.002249988  -3.73 -2.50 -3.34  0.40
## 7  2007-08-31    -0.001170495   0.92 -0.10 -2.25  0.42
## 8  2007-09-30     0.077241302   3.22 -2.28 -1.91  0.32
## 9  2007-10-31     0.113769305   1.80  0.22 -2.62  0.32
## 10 2007-11-30    -0.076217903  -4.83 -2.61 -1.18  0.34
## # ... with 109 more rows
…
