…
This example is intended to expose potential users to several functions in `timekit`. We'll develop a prediction algorithm to predict daily volume using the __time series signature__. First, start with the `FANG` data set from the `tidyquant` package. Filter to get just the FB stock prices, and select the "date" and "volume" columns. This is a typical time series data structure. A time-based tibble with a "date" column and a features column ("volume" in this case). 


{% highlight r %}
FB_tbl <- FANG %>%
    filter(symbol == "FB") %>%
    select(date, volume)
FB_tbl
{% endhighlight %}



{% highlight text %}
## # A tibble: 1,008 × 2
##          date    volume
##        <date>     <dbl>
## 1  2013-01-02  69846400
## 2  2013-01-03  63140600
## 3  2013-01-04  72715400
## 4  2013-01-07  83781800
## 5  2013-01-08  45871300
## 6  2013-01-09 104787700
## 7  2013-01-10  95316400
## 8  2013-01-11  89598000
## 9  2013-01-14  98892800
## 10 2013-01-15 173242600
## # ... with 998 more rows
…
Next, augment the time series signature to the training set using `tk_augment_timeseries_signature()`. This function adds the time series signature as additional columns to the data frame. The signature will be used next for the data mining process.


{% highlight r %}
train <- tk_augment_timeseries_signature(train)
train
{% endhighlight %}



{% highlight text %}
## # A tibble: 756 × 24
##          date    volume  index.num   diff  year  half quarter month
##        <date>     <dbl>      <int>  <int> <int> <int>   <int> <int>
## 1  2013-01-02  69846400 1357084800     NA  2013     1       1     1
## 2  2013-01-03  63140600 1357171200  86400  2013     1       1     1
## 3  2013-01-04  72715400 1357257600  86400  2013     1       1     1
## 4  2013-01-07  83781800 1357516800 259200  2013     1       1     1
## 5  2013-01-08  45871300 1357603200  86400  2013     1       1     1
## 6  2013-01-09 104787700 1357689600  86400  2013     1       1     1
## 7  2013-01-10  95316400 1357776000  86400  2013     1       1     1
## 8  2013-01-11  89598000 1357862400  86400  2013     1       1     1
## 9  2013-01-14  98892800 1358121600 259200  2013     1       1     1
## 10 2013-01-15 173242600 1358208000  86400  2013     1       1     1
## # ... with 746 more rows, and 16 more variables: month.xts <int>,
## #   month.lbl <ord>, day <int>, hour <int>, minute <int>,
## #   second <int>, wday <int>, wday.xts <int>, wday.lbl <ord>,
## #   mday <int>, yday <int>, week <int>, week.iso <int>, week2 <int>,
## #   week3 <int>, week4 <int>
…
{% highlight text %}
## # A tibble: 252 × 23
##         index  index.num   diff  year  half quarter month month.xts
##        <date>      <int>  <int> <int> <int>   <int> <int>     <int>
## 1  2016-01-04 1451865600     NA  2016     1       1     1         0
## 2  2016-01-05 1451952000  86400  2016     1       1     1         0
## 3  2016-01-06 1452038400  86400  2016     1       1     1         0
## 4  2016-01-07 1452124800  86400  2016     1       1     1         0
## 5  2016-01-08 1452211200  86400  2016     1       1     1         0
## 6  2016-01-11 1452470400 259200  2016     1       1     1         0
## 7  2016-01-12 1452556800  86400  2016     1       1     1         0
## 8  2016-01-13 1452643200  86400  2016     1       1     1         0
## 9  2016-01-14 1452729600  86400  2016     1       1     1         0
## 10 2016-01-15 1452816000  86400  2016     1       1     1         0
## # ... with 242 more rows, and 15 more variables: month.lbl <ord>,
## #   day <int>, hour <int>, minute <int>, second <int>, wday <int>,
## #   wday.xts <int>, wday.lbl <ord>, mday <int>, yday <int>,
## #   week <int>, week.iso <int>, week2 <int>, week3 <int>, week4 <int>
…
When a pattern is present, data mining using the time series signature can provide exceptional results. Further, the analyst has the flexibility to implement other data mining techniques and methods. We implemented a linear regression, but possibly other regression methods would work better. 

## Example 3: Simplified and Extensible Coercion

In the final example, we'll examine briefly the various coercion functions that enable simplified coercion back and forth. We'll start with the `FB_tbl` data.


{% highlight r %}
FB_tbl
{% endhighlight %}



{% highlight text %}
## # A tibble: 1,008 × 2
##          date    volume
##        <date>     <dbl>
## 1  2013-01-02  69846400
## 2  2013-01-03  63140600
## 3  2013-01-04  72715400
## 4  2013-01-07  83781800
## 5  2013-01-08  45871300
## 6  2013-01-09 104787700
## 7  2013-01-10  95316400
## 8  2013-01-11  89598000
## 9  2013-01-14  98892800
## 10 2013-01-15 173242600
## # ... with 998 more rows
…
{% highlight r %}
FB_tbl %>%
    tk_xts(silent = TRUE) %>%            # Coerce to xts
    tk_zoo() %>%                         # Coerce to zoo
    tk_ts(start = 2013, freq = 252) %>%  # Coerce to ts
    tk_xts() %>%                         # Coerce back to xts
    tk_tbl()                             # Coerce back to tbl
{% endhighlight %}



{% highlight text %}
## # A tibble: 1,008 × 2
##         index    volume
##        <date>     <dbl>
## 1  2013-01-02  69846400
## 2  2013-01-03  63140600
## 3  2013-01-04  72715400
## 4  2013-01-07  83781800
## 5  2013-01-08  45871300
## 6  2013-01-09 104787700
## 7  2013-01-10  95316400
## 8  2013-01-11  89598000
## 9  2013-01-14  98892800
## 10 2013-01-15 173242600
## # ... with 998 more rows
{% endhighlight %}

One caveat is the going from `ts` to `tbl`. The default is `timekit_idx = FALSE` argument which returns a regularized index. If the time-based index is needed, just set `timekit_idx = TRUE`.


{% highlight r %}
FB_tbl %>%
    tk_ts(start = 2013, freq = 252, silent = TRUE) %>%
    tk_tbl(timekit_idx = TRUE)
{% endhighlight %}



{% highlight text %}
## # A tibble: 1,008 × 2
##         index    volume
##        <date>     <dbl>
## 1  2013-01-02  69846400
## 2  2013-01-03  63140600
## 3  2013-01-04  72715400
## 4  2013-01-07  83781800
## 5  2013-01-08  45871300
## 6  2013-01-09 104787700
## 7  2013-01-10  95316400
## 8  2013-01-11  89598000
## 9  2013-01-14  98892800
## 10 2013-01-15 173242600
## # ... with 998 more rows
…
