…
# Isolate Information Technology, and get past the NA's for our viewing pleasure
etf_returns_runCor_bizsci %>%
    filter(sector == "Information Technology") %>%
    slice(20:n())
{% endhighlight %}



{% highlight text %}
## Source: local data frame [508 x 6]
## Groups: ticker, sector [1]
## 
##    ticker                 sector       date weekly.returns
##     <chr>                  <chr>     <date>          <dbl>
## 1     XLK Information Technology 2007-05-18    0.004752405
## 2     XLK Information Technology 2007-05-25   -0.004752405
## 3     XLK Information Technology 2007-06-01    0.018096442
## 4     XLK Information Technology 2007-06-08   -0.012159397
## 5     XLK Information Technology 2007-06-15    0.017214861
## 6     XLK Information Technology 2007-06-22   -0.009744766
## 7     XLK Information Technology 2007-06-29    0.002738081
## 8     XLK Information Technology 2007-07-06    0.021256839
## 9     XLK Information Technology 2007-07-13    0.018939960
## 10    XLK Information Technology 2007-07-20    0.005612700
##    index.returns       cor
##            <dbl>     <dbl>
## 1   0.0115988780 0.8820099
## 2  -0.0061121613 0.8963962
## 3   0.0156329832 0.8946237
## 4  -0.0199273050 0.9301269
## 5   0.0133507228 0.9311254
## 6  -0.0166001040 0.9302817
## 7  -0.0007974617 0.9303941
## 8   0.0168093546 0.9315747
## 9   0.0121497774 0.9328206
## 10 -0.0087563781 0.8887265
## # ... with 498 more rows
…
