…
FANG_tbl_d <- FANG_symbols %>%
    tq_get(get = "stock.prices", from = "2014-01-01", to = "2016-12-31") 

FANG_tbl_d <- FANG_tbl_d %>%
    group_by(symbol)

FANG_tbl_d
{% endhighlight %}



{% highlight text %}
## # A tibble: 3,024 x 8
## # Groups:   symbol [4]
##    symbol       date  open  high   low close   volume adjusted
##     <chr>     <date> <dbl> <dbl> <dbl> <dbl>    <dbl>    <dbl>
##  1     FB 2014-01-02 54.83 55.22 54.19 54.71 43195500    54.71
##  2     FB 2014-01-03 55.02 55.65 54.53 54.56 38246200    54.56
##  3     FB 2014-01-06 54.42 57.26 54.05 57.20 68852600    57.20
##  4     FB 2014-01-07 57.70 58.55 57.22 57.92 77207400    57.92
##  5     FB 2014-01-08 57.60 58.41 57.23 58.23 56682400    58.23
##  6     FB 2014-01-09 58.65 58.96 56.65 57.22 92253300    57.22
##  7     FB 2014-01-10 57.13 58.30 57.06 57.94 42449500    57.94
##  8     FB 2014-01-13 57.91 58.25 55.38 55.91 63010900    55.91
##  9     FB 2014-01-14 56.46 57.78 56.10 57.74 37503600    57.74
## 10     FB 2014-01-15 57.98 58.57 57.27 57.60 33663400    57.60
## # ... with 3,014 more rows
…
