…
# Get the downloads for the individual packages
tidyverse_downloads <- cran_downloads(
    packages = pkgs, 
    from     = "2017-01-01", 
    to       = "2017-06-30") %>%
    tibble::as_tibble() %>%
    group_by(package)

tidyverse_downloads
{% endhighlight %}



{% highlight text %}
## # A tibble: 1,629 x 3
## # Groups:   package [9]
##          date count package
##  *     <date> <dbl>   <chr>
##  1 2017-01-01   873   tidyr
##  2 2017-01-02  1840   tidyr
##  3 2017-01-03  2495   tidyr
##  4 2017-01-04  2906   tidyr
##  5 2017-01-05  2847   tidyr
##  6 2017-01-06  2756   tidyr
##  7 2017-01-07  1439   tidyr
##  8 2017-01-08  1556   tidyr
##  9 2017-01-09  3678   tidyr
## 10 2017-01-10  7086   tidyr
## # ... with 1,619 more rows
…
tidyverse_lags <- tidyverse_downloads %>%
    tq_mutate(
        select     = count,
        mutate_fun = lag.xts,
        k          = 1:28,
        col_rename = col_names
    )
tidyverse_lags
{% endhighlight %}



{% highlight text %}
## # A tibble: 1,629 x 31
## # Groups:   package [9]
##    package       date count lag_1 lag_2 lag_3 lag_4 lag_5 lag_6 lag_7
##      <chr>     <date> <dbl> <dbl> <dbl> <dbl> <dbl> <dbl> <dbl> <dbl>
##  1   tidyr 2017-01-01   873    NA    NA    NA    NA    NA    NA    NA
##  2   tidyr 2017-01-02  1840   873    NA    NA    NA    NA    NA    NA
##  3   tidyr 2017-01-03  2495  1840   873    NA    NA    NA    NA    NA
##  4   tidyr 2017-01-04  2906  2495  1840   873    NA    NA    NA    NA
##  5   tidyr 2017-01-05  2847  2906  2495  1840   873    NA    NA    NA
##  6   tidyr 2017-01-06  2756  2847  2906  2495  1840   873    NA    NA
##  7   tidyr 2017-01-07  1439  2756  2847  2906  2495  1840   873    NA
##  8   tidyr 2017-01-08  1556  1439  2756  2847  2906  2495  1840   873
##  9   tidyr 2017-01-09  3678  1556  1439  2756  2847  2906  2495  1840
## 10   tidyr 2017-01-10  7086  3678  1556  1439  2756  2847  2906  2495
## # ... with 1,619 more rows, and 21 more variables: lag_8 <dbl>,
## #   lag_9 <dbl>, lag_10 <dbl>, lag_11 <dbl>, lag_12 <dbl>,
## #   lag_13 <dbl>, lag_14 <dbl>, lag_15 <dbl>, lag_16 <dbl>,
## #   lag_17 <dbl>, lag_18 <dbl>, lag_19 <dbl>, lag_20 <dbl>,
## #   lag_21 <dbl>, lag_22 <dbl>, lag_23 <dbl>, lag_24 <dbl>,
## #   lag_25 <dbl>, lag_26 <dbl>, lag_27 <dbl>, lag_28 <dbl>
…
{% highlight text %}
## # A tibble: 252 x 5
## # Groups:   package [?]
##    package   lag        cor cutoff_upper cutoff_lower
##      <chr> <dbl>      <dbl>        <dbl>        <dbl>
##  1   broom     1 0.65709555    0.1486588   -0.1486588
##  2   broom     2 0.29065629    0.1486588   -0.1486588
##  3   broom     3 0.18617353    0.1486588   -0.1486588
##  4   broom     4 0.17266972    0.1486588   -0.1486588
##  5   broom     5 0.26686998    0.1486588   -0.1486588
##  6   broom     6 0.55222426    0.1486588   -0.1486588
##  7   broom     7 0.74755610    0.1486588   -0.1486588
##  8   broom     8 0.51461062    0.1486588   -0.1486588
##  9   broom     9 0.19069218    0.1486588   -0.1486588
## 10   broom    10 0.08473241    0.1486588   -0.1486588
## # ... with 242 more rows
…
{% highlight text %}
## # A tibble: 252 x 2
## # Groups:   lag [28]
##       lag    cor_abs
##    <fctr>      <dbl>
##  1      1 0.65709555
##  2      2 0.29065629
##  3      3 0.18617353
##  4      4 0.17266972
##  5      5 0.26686998
##  6      6 0.55222426
##  7      7 0.74755610
##  8      8 0.51461062
##  9      9 0.19069218
## 10     10 0.08473241
## # ... with 242 more rows
…
