…
{% highlight r %}
states
{% endhighlight %}



{% highlight text %}
## # A tibble: 50 x 2
##    fred_code abbreviation
##        <chr>        <chr>
##  1    ALNGSP           AL
##  2    AKNGSP           AK
##  3    AZNGSP           AZ
##  4    ARNGSP           AR
##  5    CANGSP           CA
##  6    CONGSP           CO
##  7    CTNGSP           CT
##  8    DENGSP           DE
##  9    FLNGSP           FL
## 10    GANGSP           GA
## # ... with 40 more rows
…
{% highlight r %}
states_gdp
{% endhighlight %}



{% highlight text %}
## # A tibble: 500 x 3
## # Groups:   abbreviation [50]
##    abbreviation       date    gdp
##           <chr>     <date>  <int>
##  1           AL 2007-01-01 169923
##  2           AL 2008-01-01 172646
##  3           AL 2009-01-01 168315
##  4           AL 2010-01-01 174710
##  5           AL 2011-01-01 180665
##  6           AL 2012-01-01 185878
##  7           AL 2013-01-01 190319
##  8           AL 2014-01-01 194404
##  9           AL 2015-01-01 199980
## 10           AL 2016-01-01 204861
## # ... with 490 more rows
…
Start with `states_gdp`, which contains our data for all 50 states. Use `nest()` to create a nested data frame with the "date" and "gdp" inside a list column.


{% highlight r %}
# Nest the grouped data frame so date and gdp are nested in list columns
states_gdp <- states_gdp %>%
    nest()
states_gdp
{% endhighlight %}



{% highlight text %}
## # A tibble: 50 x 2
##    abbreviation              data
##           <chr>            <list>
##  1           AL <tibble [10 x 2]>
##  2           AK <tibble [10 x 2]>
##  3           AZ <tibble [10 x 2]>
##  4           AR <tibble [10 x 2]>
##  5           CA <tibble [10 x 2]>
##  6           CO <tibble [10 x 2]>
##  7           CT <tibble [10 x 2]>
##  8           DE <tibble [10 x 2]>
##  9           FL <tibble [10 x 2]>
## 10           GA <tibble [10 x 2]>
## # ... with 40 more rows
{% endhighlight %}

Next, use `map()` to iteratively apply the `tk_ts()` function. Add the additional arguments `freq = 1`, `start = 2007` and `silent = TRUE`. The new column, "data_ts", contains the data converted `ts`. 


{% highlight r %}
states_gdp <- states_gdp %>%
    mutate(data_ts = map(data, tk_ts, freq = 1, start = 2007, silent = TRUE))
states_gdp
{% endhighlight %}



{% highlight text %}
## # A tibble: 50 x 3
##    abbreviation              data  data_ts
##           <chr>            <list>   <list>
##  1           AL <tibble [10 x 2]> <S3: ts>
##  2           AK <tibble [10 x 2]> <S3: ts>
##  3           AZ <tibble [10 x 2]> <S3: ts>
##  4           AR <tibble [10 x 2]> <S3: ts>
##  5           CA <tibble [10 x 2]> <S3: ts>
##  6           CO <tibble [10 x 2]> <S3: ts>
##  7           CT <tibble [10 x 2]> <S3: ts>
##  8           DE <tibble [10 x 2]> <S3: ts>
##  9           FL <tibble [10 x 2]> <S3: ts>
## 10           GA <tibble [10 x 2]> <S3: ts>
## # ... with 40 more rows
{% endhighlight %}

Third, use `map()` again, this time applying the `auto.arima` function. We can see that a new column is added called fit. 


{% highlight r %}
states_gdp <- states_gdp %>%
    mutate(fit = map(data_ts, auto.arima))
states_gdp
{% endhighlight %}



{% highlight text %}
## # A tibble: 50 x 4
##    abbreviation              data  data_ts         fit
##           <chr>            <list>   <list>      <list>
##  1           AL <tibble [10 x 2]> <S3: ts> <S3: ARIMA>
##  2           AK <tibble [10 x 2]> <S3: ts> <S3: ARIMA>
##  3           AZ <tibble [10 x 2]> <S3: ts> <S3: ARIMA>
##  4           AR <tibble [10 x 2]> <S3: ts> <S3: ARIMA>
##  5           CA <tibble [10 x 2]> <S3: ts> <S3: ARIMA>
##  6           CO <tibble [10 x 2]> <S3: ts> <S3: ARIMA>
##  7           CT <tibble [10 x 2]> <S3: ts> <S3: ARIMA>
##  8           DE <tibble [10 x 2]> <S3: ts> <S3: ARIMA>
##  9           FL <tibble [10 x 2]> <S3: ts> <S3: ARIMA>
## 10           GA <tibble [10 x 2]> <S3: ts> <S3: ARIMA>
## # ... with 40 more rows
{% endhighlight %}

Optionally, we can run glance to get the model accuracies.


{% highlight r %}
states_gdp %>%
    mutate(glance = map(fit, sw_glance)) %>%
    unnest(glance, .drop = T) 
{% endhighlight %}



{% highlight text %}
## # A tibble: 50 x 13
##    abbreviation                      model.desc     sigma    logLik
##           <chr>                           <chr>     <dbl>     <dbl>
##  1           AL         ARIMA(0,1,0) with drift  3267.828 -85.06590
##  2           AK ARIMA(0,0,0) with non-zero mean  4199.313 -97.08934
##  3           AZ                    ARIMA(0,2,0)  7559.654 -82.79488
##  4           AR         ARIMA(0,1,0) with drift  2231.839 -81.63464
##  5           CA                    ARIMA(0,2,0) 60035.965 -99.37208
##  6           CO         ARIMA(0,1,0) with drift  7064.218 -92.00497
##  7           CT                    ARIMA(0,2,0)  5009.932 -79.50274
##  8           DE         ARIMA(0,1,0) with drift  1865.871 -80.02328
##  9           FL                    ARIMA(0,2,0) 17001.163 -89.27758
## 10           GA                    ARIMA(0,2,0)  6369.686 -81.42147
## # ... with 40 more rows, and 9 more variables: AIC <dbl>, BIC <dbl>,
## #   ME <dbl>, RMSE <dbl>, MAE <dbl>, MPE <dbl>, MAPE <dbl>,
## #   MASE <dbl>, ACF1 <dbl>
{% endhighlight %}

Fourth, use `map()` to apply the `forecast` function, passing `h = 3` as an additional argument.


{% highlight r %}
states_gdp <- states_gdp %>%
    mutate(forecast = map(fit, forecast, h = 3))
states_gdp
{% endhighlight %}



{% highlight text %}
## # A tibble: 50 x 5
##    abbreviation              data  data_ts         fit       forecast
##           <chr>            <list>   <list>      <list>         <list>
##  1           AL <tibble [10 x 2]> <S3: ts> <S3: ARIMA> <S3: forecast>
##  2           AK <tibble [10 x 2]> <S3: ts> <S3: ARIMA> <S3: forecast>
##  3           AZ <tibble [10 x 2]> <S3: ts> <S3: ARIMA> <S3: forecast>
##  4           AR <tibble [10 x 2]> <S3: ts> <S3: ARIMA> <S3: forecast>
##  5           CA <tibble [10 x 2]> <S3: ts> <S3: ARIMA> <S3: forecast>
##  6           CO <tibble [10 x 2]> <S3: ts> <S3: ARIMA> <S3: forecast>
##  7           CT <tibble [10 x 2]> <S3: ts> <S3: ARIMA> <S3: forecast>
##  8           DE <tibble [10 x 2]> <S3: ts> <S3: ARIMA> <S3: forecast>
##  9           FL <tibble [10 x 2]> <S3: ts> <S3: ARIMA> <S3: forecast>
## 10           GA <tibble [10 x 2]> <S3: ts> <S3: ARIMA> <S3: forecast>
## # ... with 40 more rows
…
Finally, use `map()` to apply the `sw_sweep` function, passing `timekit_idx = TRUE` (this gets dates instead of numbers) and `rename_index = "date"`. We no longer need the other columns so select "abbreviation" and "sweep" columns and `unnest()`. Viola, we have a nice tidy data frame of all of the state forecasts!


{% highlight r %}
states_gdp_sweep <- states_gdp %>%
    mutate(sweep = map(forecast, sw_sweep, timekit_idx = T, rename_index = "date")) %>%
    select(abbreviation, sweep) %>%
    unnest()
states_gdp_sweep
{% endhighlight %}



{% highlight text %}
## # A tibble: 650 x 8
##    abbreviation       date    key    gdp lo.80 lo.95 hi.80 hi.95
##           <chr>     <date>  <chr>  <dbl> <dbl> <dbl> <dbl> <dbl>
##  1           AL 2007-01-01 actual 169923    NA    NA    NA    NA
##  2           AL 2008-01-01 actual 172646    NA    NA    NA    NA
##  3           AL 2009-01-01 actual 168315    NA    NA    NA    NA
##  4           AL 2010-01-01 actual 174710    NA    NA    NA    NA
##  5           AL 2011-01-01 actual 180665    NA    NA    NA    NA
##  6           AL 2012-01-01 actual 185878    NA    NA    NA    NA
##  7           AL 2013-01-01 actual 190319    NA    NA    NA    NA
##  8           AL 2014-01-01 actual 194404    NA    NA    NA    NA
##  9           AL 2015-01-01 actual 199980    NA    NA    NA    NA
## 10           AL 2016-01-01 actual 204861    NA    NA    NA    NA
## # ... with 640 more rows
…
