…
## `select` VS `ohlc_fun`

Here's a quick example demonstrating the difference in the approaches. Let's first grab the stock price data for IBM.


{% highlight r %}
ibm <- tq_get("IBM")
ibm
{% endhighlight %}



{% highlight text %}
## # A tibble: 2,581 × 7
##          date   open   high   low  close   volume adjusted
##        <date>  <dbl>  <dbl> <dbl>  <dbl>    <dbl>    <dbl>
## 1  2007-01-03  97.18  98.40 96.26  97.27  9196800 77.73997
## 2  2007-01-04  97.25  98.79 96.88  98.31 10524500 78.57116
## 3  2007-01-05  97.60  97.95 96.91  97.42  7221300 77.85985
## 4  2007-01-08  98.50  99.50 98.35  98.90 10340000 79.04270
## 5  2007-01-09  99.08 100.33 99.07 100.07 11108200 79.97778
## 6  2007-01-10  98.50  99.05 97.93  98.89  8744800 79.03470
## 7  2007-01-11  99.00  99.90 98.50  98.65  8000700 78.84289
## 8  2007-01-12  98.99  99.69 98.50  99.34  6636500 79.39435
## 9  2007-01-16  99.40 100.84 99.30 100.82  9602200 80.57719
## 10 2007-01-17 100.69 100.90 99.90 100.02  8200700 79.93782
## # ... with 2,571 more rows
…
## Working with non-OHLC data

The `select` argument is more than a surface level change. The change from the OHLC functions allows us to work with non-OHLC data straight from `tq_mutate()`. This used to be a little awkward. Since the columns of non-OHLC data could not be selected with a `quantmod` function, we had to use `tq_mutate_xy()` to find them. The intended use of the `*_xy()` functions is for working with functions that require mutating both x and y in parallel, so this definitely wasn't best practice. Check out this old example of working with some crude oil prices from FRED, and applying a 1 period lag.


{% highlight r %}
oil_prices <- tq_get("DCOILWTICO", get = "economic.data")
oil_prices
{% endhighlight %}



{% highlight text %}
## # A tibble: 2,671 × 2
##          date price
##        <date> <dbl>
## 1  2007-01-01    NA
## 2  2007-01-02 60.77
## 3  2007-01-03 58.31
## 4  2007-01-04 55.65
## 5  2007-01-05 56.29
## 6  2007-01-08 56.08
## 7  2007-01-09 55.65
## 8  2007-01-10 53.95
## 9  2007-01-11 51.91
## 10 2007-01-12 52.96
## # ... with 2,661 more rows
{% endhighlight %}

`tq_mutate_xy()` was the only thing that worked in the old version, but it just felt wrong! 


{% highlight r %}
tq_mutate_xy(oil_prices, x = price, y = NULL, mutate_fun = lag.xts, k = 1)
{% endhighlight %}



{% highlight text %}
## # A tibble: 2,671 × 3
##          date price lag.xts
##        <date> <dbl>   <dbl>
## 1  2007-01-01    NA      NA
## 2  2007-01-02 60.77      NA
## 3  2007-01-03 58.31   60.77
## 4  2007-01-04 55.65   58.31
## 5  2007-01-05 56.29   55.65
## 6  2007-01-08 56.08   56.29
## 7  2007-01-09 55.65   56.08
## 8  2007-01-10 53.95   55.65
## 9  2007-01-11 51.91   53.95
## 10 2007-01-12 52.96   51.91
## # ... with 2,661 more rows
{% endhighlight %}

Enter, `select`. This works much better!


{% highlight r %}
tq_mutate(oil_prices, select = price, mutate_fun = lag.xts, k = 1)
{% endhighlight %}



{% highlight text %}
## # A tibble: 2,671 × 3
##          date price lag.xts
##        <date> <dbl>   <dbl>
## 1  2007-01-01    NA      NA
## 2  2007-01-02 60.77      NA
## 3  2007-01-03 58.31   60.77
## 4  2007-01-04 55.65   58.31
## 5  2007-01-05 56.29   55.65
## 6  2007-01-08 56.08   56.29
## 7  2007-01-09 55.65   56.08
## 8  2007-01-10 53.95   55.65
## 9  2007-01-11 51.91   53.95
## 10 2007-01-12 52.96   51.91
## # ... with 2,661 more rows
…
## Fama French factors

_Quandl_ actually has a cleaned up series for the Fama French factors going back to 1926! As of writing this, the most recent data point in their weekly series is 02/24/2017, so for reproducibility purposes we will stop the series there.


{% highlight r %}
fama_french <- tq_get("KFRENCH/FACTORS_W", get = "quandl", to = "2017-02-24")
fama_french
{% endhighlight %}



{% highlight text %}
## # A tibble: 5,849 × 5
##          date mkt.rf   smb   hml    rf
##        <date>  <dbl> <dbl> <dbl> <dbl>
## 1  2017-02-24   0.48 -1.09 -0.46 0.009
## 2  2017-02-17   1.53 -0.54 -0.39 0.009
## 3  2017-02-10   0.88  0.14 -1.20 0.009
## 4  2017-02-03   0.15  0.41 -0.67 0.009
## 5  2017-01-27   1.15  0.22  0.59 0.009
## 6  2017-01-20  -0.31 -1.13 -0.15 0.009
## 7  2017-01-13   0.09  0.47 -1.04 0.009
## 8  2017-01-06   1.69 -0.58 -1.25 0.009
## 9  2016-12-30  -1.16 -0.11  0.13 0.006
## 10 2016-12-23   0.32  0.17  0.71 0.006
## # ... with 5,839 more rows
{% endhighlight %}

We only need two columns for the CAPM analysis, `mkt.rf` and `rf`, so let's select them.


{% highlight r %}
fama_french <- fama_french %>%
    select(date, mkt.rf, rf)
fama_french
{% endhighlight %}



{% highlight text %}
## # A tibble: 5,849 × 3
##          date mkt.rf    rf
##        <date>  <dbl> <dbl>
## 1  2017-02-24   0.48 0.009
## 2  2017-02-17   1.53 0.009
## 3  2017-02-10   0.88 0.009
## 4  2017-02-03   0.15 0.009
## 5  2017-01-27   1.15 0.009
## 6  2017-01-20  -0.31 0.009
## 7  2017-01-13   0.09 0.009
## 8  2017-01-06   1.69 0.009
## 9  2016-12-30  -1.16 0.006
## 10 2016-12-23   0.32 0.006
## # ... with 5,839 more rows
…
This one is easy, we will use `tq_get()` to pull the stock prices, and then use `tq_transmute()` for the returns. For this analysis, we will pull 15 years of prices.


{% highlight r %}
apple_prices <- tq_get("AAPL", 
                       get  = "stock.prices", 
                       from = "2002-02-24", 
                       to   = "2017-02-24")
apple_prices
{% endhighlight %}



{% highlight text %}
## # A tibble: 3,778 × 7
##          date  open  high   low close    volume adjusted
##        <date> <dbl> <dbl> <dbl> <dbl>     <dbl>    <dbl>
## 1  2002-02-25 22.85 24.72 22.36 23.81 106712200 1.542406
## 2  2002-02-26 23.91 24.37 23.25 23.67  65032800 1.533337
## 3  2002-02-27 23.94 24.25 20.94 21.96 257539800 1.422564
## 4  2002-02-28 22.15 22.59 21.35 21.70 114234400 1.405721
## 5  2002-03-01 21.93 23.50 21.82 23.45  87248000 1.519086
## 6  2002-03-04 23.26 24.58 22.76 24.29  87064600 1.573501
## 7  2002-03-05 24.15 24.43 23.40 23.53  68675600 1.524268
## 8  2002-03-06 23.48 24.34 22.93 24.07  56551600 1.559249
## 9  2002-03-07 24.06 24.53 23.61 24.38  64562400 1.579331
## 10 2002-03-08 24.74 25.09 24.30 24.66  67443600 1.597469
## # ... with 3,768 more rows
…
{% highlight r %}
apple_return <- tq_transmute(apple_prices, 
                             select     = adjusted, 
                             col_rename = "weekly_return", 
                             mutate_fun = periodReturn, 
                             period     = "weekly") %>%
    mutate(weekly_return = weekly_return * 100)
apple_return
{% endhighlight %}



{% highlight text %}
## # A tibble: 783 × 2
##          date weekly_return
##        <date>         <dbl>
## 1  2002-03-01    -1.5119236
## 2  2002-03-08     5.1598790
## 3  2002-03-15     1.1759853
## 4  2002-03-22    -3.4468571
## 5  2002-03-28    -1.7434935
## 6  2002-04-05     4.5205327
## 7  2002-04-12     1.2934187
## 8  2002-04-19    -0.3192103
## 9  2002-04-26    -7.8862983
## 10 2002-05-03     2.1729753
## # ... with 773 more rows
…
## Merge the two datasets

Alright, now that we have the two data sets, let's join them together. We want to keep all of `apple_return`, and just match the `fama_french` data to it. A `left_join` will serve that purpose. 


{% highlight r %}
joined_data <- left_join(apple_return, fama_french)
joined_data
{% endhighlight %}



{% highlight text %}
## # A tibble: 783 × 4
##          date weekly_return mkt.rf    rf
##        <date>         <dbl>  <dbl> <dbl>
## 1  2002-03-01    -1.5119236   3.79 0.033
## 2  2002-03-08     5.1598790   3.15 0.033
## 3  2002-03-15     1.1759853   0.09 0.033
## 4  2002-03-22    -3.4468571  -1.19 0.033
## 5  2002-03-28    -1.7434935  -0.04 0.033
## 6  2002-04-05     4.5205327  -2.15 0.038
## 7  2002-04-12     1.2934187  -0.51 0.038
## 8  2002-04-19    -0.3192103   1.26 0.038
## 9  2002-04-26    -7.8862983  -4.13 0.038
## 10 2002-05-03     2.1729753  -0.13 0.036
## # ... with 773 more rows
{% endhighlight %}

Remembering that the left side of the CAPM formula is apple return minus the risk free rate, we calculate that as well.


{% highlight r %}
joined_data <- mutate(joined_data, 
       weekly_ret_rf = weekly_return - rf)
joined_data
{% endhighlight %}



{% highlight text %}
## # A tibble: 783 × 5
##          date weekly_return mkt.rf    rf weekly_ret_rf
##        <date>         <dbl>  <dbl> <dbl>         <dbl>
## 1  2002-03-01    -1.5119236   3.79 0.033    -1.5449236
## 2  2002-03-08     5.1598790   3.15 0.033     5.1268790
## 3  2002-03-15     1.1759853   0.09 0.033     1.1429853
## 4  2002-03-22    -3.4468571  -1.19 0.033    -3.4798571
## 5  2002-03-28    -1.7434935  -0.04 0.033    -1.7764935
## 6  2002-04-05     4.5205327  -2.15 0.038     4.4825327
## 7  2002-04-12     1.2934187  -0.51 0.038     1.2554187
## 8  2002-04-19    -0.3192103   1.26 0.038    -0.3572103
## 9  2002-04-26    -7.8862983  -4.13 0.038    -7.9242983
## 10 2002-05-03     2.1729753  -0.13 0.036     2.1369753
## # ... with 773 more rows
…
