…
Load the `FANG` data set, which will be used in the examples. The `FANG` data set contains the historical stock prices for FB, AMZN, NFLX, and GOOG from the beginning of 2013 through the end of 2016. 


{% highlight r %}
data(FANG)
FANG
{% endhighlight %}



{% highlight text %}
## # A tibble: 4,032 × 8
##    symbol       date  open  high   low close    volume adjusted
##     <chr>     <date> <dbl> <dbl> <dbl> <dbl>     <dbl>    <dbl>
## 1      FB 2013-01-02 27.44 28.18 27.42 28.00  69846400    28.00
## 2      FB 2013-01-03 27.88 28.47 27.59 27.77  63140600    27.77
## 3      FB 2013-01-04 28.01 28.93 27.83 28.76  72715400    28.76
## 4      FB 2013-01-07 28.69 29.79 28.65 29.42  83781800    29.42
## 5      FB 2013-01-08 29.51 29.60 28.86 29.06  45871300    29.06
## 6      FB 2013-01-09 29.67 30.60 29.49 30.59 104787700    30.59
## 7      FB 2013-01-10 30.60 31.45 30.28 31.30  95316400    31.30
## 8      FB 2013-01-11 31.28 31.96 31.10 31.72  89598000    31.72
## 9      FB 2013-01-14 32.08 32.21 30.62 30.95  98892800    30.95
## 10     FB 2013-01-15 30.64 31.71 29.88 30.10 173242600    30.10
## # ... with 4,022 more rows
…
{% highlight text %}
## # A tibble: 48 × 2
##          date portfolio.returns
##        <date>             <dbl>
## 1  2013-01-31       0.260144557
## 2  2013-02-28      -0.004558003
## 3  2013-03-28      -0.019454685
## 4  2013-04-30       0.080958243
## 5  2013-05-31      -0.013883075
## 6  2013-06-28      -0.017906983
## 7  2013-07-31       0.253520291
## 8  2013-08-30       0.103866369
## 9  2013-09-30       0.145446247
## 10 2013-10-31       0.041956895
## # ... with 38 more rows
…
Like peeling away layers we can see whats inside. Let's do one more `unnest`.


{% highlight r %}
AAPL_data %>% 
    unnest(key.ratios) %>% 
    unnest(data)
{% endhighlight %}



{% highlight text %}
## # A tibble: 890 × 7
##    symbol    section sub.section group        category       date
##     <chr>      <chr>       <chr> <dbl>           <chr>     <date>
## 1    AAPL Financials  Financials     1 Revenue USD Mil 2007-09-01
## 2    AAPL Financials  Financials     1 Revenue USD Mil 2008-09-01
## 3    AAPL Financials  Financials     1 Revenue USD Mil 2009-09-01
## 4    AAPL Financials  Financials     1 Revenue USD Mil 2010-09-01
## 5    AAPL Financials  Financials     1 Revenue USD Mil 2011-09-01
## 6    AAPL Financials  Financials     1 Revenue USD Mil 2012-09-01
## 7    AAPL Financials  Financials     1 Revenue USD Mil 2013-09-01
## 8    AAPL Financials  Financials     1 Revenue USD Mil 2014-09-01
## 9    AAPL Financials  Financials     1 Revenue USD Mil 2015-09-01
## 10   AAPL Financials  Financials     1 Revenue USD Mil 2016-09-01
## # ... with 880 more rows, and 1 more variables: value <dbl>
…
The separation of a stock list from a call to retrieve the data for each of the stocks is fundamentally a good idea because now we can have more lists. For example, if you want to download stock prices for every stock covered on the NASDAQ exchange, you can use the new `tq_exchange("NASDAQ")` to retrieve the stock list and then pipe (`%>%`) the list to `tq_get`.   


{% highlight r %}
tq_exchange("NASDAQ")
{% endhighlight %}



{% highlight text %}
## # A tibble: 3,169 × 7
##    symbol                                company last.sale.price
##     <chr>                                  <chr>           <dbl>
## 1     PIH 1347 Property Insurance Holdings, Inc.            7.20
## 2    FLWS                1-800 FLOWERS.COM, Inc.            9.85
## 3    FCCY          1st Constitution Bancorp (NJ)           18.65
## 4    SRCE                 1st Source Corporation           47.08
## 5    VNET                   21Vianet Group, Inc.            7.10
## 6    TWOU                               2U, Inc.           37.65
## 7    JOBS                            51job, Inc.           35.60
## 8    CAFD             8point3 Energy Partners LP           12.91
## 9    EGHT                                8x8 Inc           14.90
## 10   AVHI                        A V Homes, Inc.           16.85
## # ... with 3,159 more rows, and 4 more variables: market.cap <chr>,
## #   ipo.year <dbl>, sector <chr>, industry <chr>
…
