…
__Now with tidyquant (Use this!)__:


{% highlight r %}
sp_500 <- tq_get("SP500", get = "stock.index")
sp_500
{% endhighlight %}



{% highlight text %}
## # A tibble: 501 × 2
##    symbol                   company
##     <chr>                     <chr>
## 1     MMM                        3M
## 2     ABT       ABBOTT LABORATORIES
## 3    ABBV                ABBVIE INC
## 4     ACN                 ACCENTURE
## 5    ATVI       ACTIVISION BLIZZARD
## 6     AYI             ACUITY BRANDS
## 7    ADBE             ADOBE SYSTEMS
## 8     AAP        ADVANCE AUTO PARTS
## 9     AET                     AETNA
## 10    AMG AFFILIATED MANAGERS GROUP
## # ... with 491 more rows
…
The result, `sp_500_processed_in_series` is a `tibble` (tidy data frame) with the stock prices for the 500+ stocks. 


{% highlight r %}
sp_500_processed_in_series
{% endhighlight %}



{% highlight text %}
## # A tibble: 1,209,822 × 9
##    symbol company       date  open  high   low close  volume adjusted
##     <chr>   <chr>     <date> <dbl> <dbl> <dbl> <dbl>   <dbl>    <dbl>
## 1     MMM      3M 2007-01-03 77.53 78.85 77.38 78.26 3781500 60.31064
## 2     MMM      3M 2007-01-04 78.40 78.41 77.45 77.95 2968400 60.07174
## 3     MMM      3M 2007-01-05 77.89 77.90 77.01 77.42 2765200 59.66330
## 4     MMM      3M 2007-01-08 77.42 78.04 76.97 77.59 2434500 59.79431
## 5     MMM      3M 2007-01-09 78.00 78.23 77.44 77.68 1896800 59.86367
## 6     MMM      3M 2007-01-10 77.31 77.96 77.04 77.85 1787500 59.99468
## 7     MMM      3M 2007-01-11 78.05 79.03 77.88 78.65 2372500 60.61120
## 8     MMM      3M 2007-01-12 78.41 79.50 78.22 79.36 2582200 61.15835
## 9     MMM      3M 2007-01-16 79.48 79.62 78.92 79.56 2526600 61.31248
## 10    MMM      3M 2007-01-17 79.33 79.51 78.75 78.91 2711300 60.81156
## # ... with 1,209,812 more rows
…
### Step 1: Add Groups <a class="anchor" id="add-groups"></a>

Let's add groups to `sp_500`. The groups are needed to divide the data across your `cl` number cores. For me, this is 8 cores. We create a `group` vector, which is a sequential vector of `1:cl` (1 to 8) repeated the length of the number of rows in `sp_500`. We then add the `group` vector to the `sp_500` tibble using the `dplyr::bind_cols()` function.


{% highlight r %}
group <- rep(1:cl, length.out = nrow(sp_500))
sp_500 <- bind_cols(tibble(group), sp_500)
sp_500
{% endhighlight %}



{% highlight text %}
## # A tibble: 501 × 3
##    group symbol                   company
##    <int>  <chr>                     <chr>
## 1      1    MMM                        3M
## 2      2    ABT       ABBOTT LABORATORIES
## 3      3   ABBV                ABBVIE INC
## 4      4    ACN                 ACCENTURE
## 5      5   ATVI       ACTIVISION BLIZZARD
## 6      6    AYI             ACUITY BRANDS
## 7      7   ADBE             ADOBE SYSTEMS
## 8      8    AAP        ADVANCE AUTO PARTS
## 9      1    AET                     AETNA
## 10     2    AMG AFFILIATED MANAGERS GROUP
## # ... with 491 more rows
…
### Step 3: Partition by Group <a class="anchor" id="partition"></a>

Next is partitioning. Think of partitioning as sending a subset of the initial `tibble` to each of the clusters. The result is a partitioned data frame (`party_df`), which we explore next. Use the `partition()` function from the `multidplyr` package to split the `sp_500` list by group and send each group to a different cluster. 


{% highlight r %}
by_group <- sp_500 %>%
    partition(group, cluster = cluster)
by_group
{% endhighlight %}



{% highlight text %}
## Source: party_df [501 x 3]
## Groups: group
## Shards: 8 [62--63 rows]
## 
## # S3: party_df
##    group symbol              company
##    <int>  <chr>                <chr>
## 1      7   ADBE        ADOBE SYSTEMS
## 2      7    ALK     ALASKA AIR GROUP
## 3      7     MO               ALTRIA
## 4      7    AWK AMERICAN WATER WORKS
## 5      7   ANTM         ANTHEM, INC.
## 6      7    AIZ             ASSURANT
## 7      7    AVY       AVERY DENNISON
## 8      7    BDX     BECTON DICKINSON
## 9      7    BMY BRISTOL-MYERS SQUIBB
## 10     7    CAT          CATERPILLAR
## # ... with 491 more rows
…
Let's check out the results


{% highlight r %}
sp_500_processed_in_parallel
{% endhighlight %}



{% highlight text %}
## Source: local data frame [1,209,820 x 10]
## Groups: group [8]
## 
##    group symbol              company       date  open  high   low
##    <int>  <chr>                <chr>     <date> <dbl> <dbl> <dbl>
## 1      4      A AGILENT TECHNOLOGIES 2007-01-03 34.99 35.48 34.05
## 2      4      A AGILENT TECHNOLOGIES 2007-01-04 34.30 34.60 33.46
## 3      4      A AGILENT TECHNOLOGIES 2007-01-05 34.30 34.40 34.00
## 4      4      A AGILENT TECHNOLOGIES 2007-01-08 33.98 34.08 33.68
## 5      4      A AGILENT TECHNOLOGIES 2007-01-09 34.08 34.32 33.63
## 6      4      A AGILENT TECHNOLOGIES 2007-01-10 34.04 34.04 33.37
## 7      4      A AGILENT TECHNOLOGIES 2007-01-11 33.83 34.04 33.35
## 8      4      A AGILENT TECHNOLOGIES 2007-01-12 33.67 34.04 33.54
## 9      4      A AGILENT TECHNOLOGIES 2007-01-16 33.51 33.93 33.34
## 10     4      A AGILENT TECHNOLOGIES 2007-01-17 33.43 33.48 32.76
## # ... with 1,209,810 more rows, and 3 more variables: close <dbl>,
## #   volume <dbl>, adjusted <dbl>
…
