…
{% highlight r %}
# Prep for performance assessment
test_performance <- test_h2o %>%
    tibble::as_tibble() %>%
    select(Attrition) %>%
    add_column(pred = as.vector(pred_h2o$predict)) %>%
    mutate_if(is.character, as.factor)
test_performance
{% endhighlight %}



{% highlight text %}
## # A tibble: 211 x 2
##    Attrition   pred
##       <fctr> <fctr>
##  1        No     No
##  2        No     No
##  3       Yes    Yes
##  4        No     No
##  5        No     No
##  6        No     No
##  7       Yes    Yes
##  8        No     No
##  9        No     No
## 10       Yes     No
## # ... with 201 more rows
…
Run this next script to show you what the output looks like and to test our `predict_model` function. See how it's the probabilities by classification. It must be in this form for model_type = "classification".


{% highlight r %}
# Test our predict_model() function
predict_model(x = automl_leader, newdata = as.data.frame(test_h2o[,-1]), type = 'raw') %>%
    tibble::as_tibble()
{% endhighlight %}



{% highlight text %}
## # A tibble: 211 x 2
##           No        Yes
##        <dbl>      <dbl>
##  1 0.7773040 0.22269598
##  2 0.9394525 0.06054745
##  3 0.0388503 0.96114970
##  4 0.9652307 0.03476933
##  5 0.8912266 0.10877342
##  6 0.9650042 0.03499577
##  7 0.1404600 0.85953998
##  8 0.9616790 0.03832103
##  9 0.8349220 0.16507804
## 10 0.6965064 0.30349364
## # ... with 201 more rows
…
{% highlight r %}
# Focus on critical features of attrition
attrition_critical_features <- hr_data %>%
    tibble::as_tibble() %>%
    select(Attrition, TrainingTimesLastYear, JobRole, OverTime) %>%
    rowid_to_column(var = "Case")
attrition_critical_features
{% endhighlight %}



{% highlight text %}
## # A tibble: 1,470 x 5
##     Case Attrition TrainingTimesLastYear                   JobRole
##    <int>    <fctr>                 <dbl>                    <fctr>
##  1     1       Yes                     0           Sales Executive
##  2     2        No                     3        Research Scientist
##  3     3       Yes                     3     Laboratory Technician
##  4     4        No                     3        Research Scientist
##  5     5        No                     3     Laboratory Technician
##  6     6        No                     2     Laboratory Technician
##  7     7        No                     3     Laboratory Technician
##  8     8        No                     2     Laboratory Technician
##  9     9        No                     2    Manufacturing Director
## 10    10        No                     3 Healthcare Representative
## # ... with 1,460 more rows, and 1 more variables: OverTime <fctr>
…
