…
# Get the downloads for the individual packages
tidyverse_downloads <- cran_downloads(
    packages = pkgs, 
    from     = "2017-01-01", 
    to       = "2017-06-30") %>%
    tibble::as_tibble() %>%
    group_by(package)

tidyverse_downloads
{% endhighlight %}



{% highlight text %}
## # A tibble: 1,629 x 3
## # Groups:   package [9]
##          date count package
##  *     <date> <dbl>   <chr>
##  1 2017-01-01   873   tidyr
##  2 2017-01-02  1840   tidyr
##  3 2017-01-03  2495   tidyr
##  4 2017-01-04  2906   tidyr
##  5 2017-01-05  2847   tidyr
##  6 2017-01-06  2756   tidyr
##  7 2017-01-07  1439   tidyr
##  8 2017-01-08  1556   tidyr
##  9 2017-01-09  3678   tidyr
## 10 2017-01-10  7086   tidyr
## # ... with 1,619 more rows
…
{% highlight text %}
## # A tibble: 243 x 3
## # Groups:   package [9]
##    package       date mean_count
##      <chr>     <date>      <dbl>
##  1   tidyr 2017-01-01    873.000
##  2   tidyr 2017-01-08   2262.714
##  3   tidyr 2017-01-15   4243.000
##  4   tidyr 2017-01-22   5118.714
##  5   tidyr 2017-01-29   4884.143
##  6   tidyr 2017-02-05   4974.286
##  7   tidyr 2017-02-12   4849.000
##  8   tidyr 2017-02-19   4570.857
##  9   tidyr 2017-02-26   4674.714
## 10   tidyr 2017-03-05   4179.429
## # ... with 233 more rows
…
{% highlight text %}
## # A tibble: 243 x 11
## # Groups:   package [9]
##    package       date  mean  stdev  `0%` `2.5%` `25%` `50%` `75%`
##      <chr>     <date> <dbl>  <dbl> <dbl>  <dbl> <dbl> <dbl> <dbl>
##  1   tidyr 2017-01-01   873     NA   873  873.0   873   873   873
##  2   tidyr 2017-01-08  2263  633.7  1439 1456.5  1698  2495  2802
##  3   tidyr 2017-01-15  4243 2643.6     0  428.1  2879  3678  6523
##  4   tidyr 2017-01-22  5119 1908.6  2432 2434.7  3939  5575  6486
##  5   tidyr 2017-01-29  4884 1600.8  2549 2564.1  3890  5588  6056
##  6   tidyr 2017-02-05  4974 1633.1  2522 2547.9  4146  5715  6016
##  7   tidyr 2017-02-12  4849 1530.8  2670 2675.6  3898  5331  5960
##  8   tidyr 2017-02-19  4571 1445.7  2463 2463.2  3804  5406  5472
##  9   tidyr 2017-02-26  4675 1508.1  2418 2443.9  3837  5297  5753
## 10   tidyr 2017-03-05  4179 1211.4  2679 2705.8  3048  4715  5172
## # ... with 233 more rows, and 2 more variables: `97.5%` <dbl>,
## #   `100%` <dbl>
…
