…
We need to recombine the results into a `tibble`. Notice there are now only 68K observations versus 1.4M previously. This is a good indication that SMOTE worked correctly. As an added benefit, the training set size has shrunk which will make the model training significantly faster.


{% highlight r %}
# Recombine the synthetic balanced data
train_df <- bind_cols(as.tibble(train_balanced$X), tibble(went_on_backorder = train_balanced$Y))
train_df
{% endhighlight %}



{% highlight text %}
## # A tibble: 67,669 x 22
##    national_inv  lead_time in_transit_qty forecast_3_month
##           <dbl>      <dbl>          <dbl>            <dbl>
##  1   141.000000 -99.000000              0          0.00000
##  2   108.000000   8.000000              0          0.00000
##  3    38.000000   8.000000              0         26.00000
##  4     0.000000 -99.000000              0          0.00000
##  5     1.417421  11.165158              0         40.60803
##  6   253.000000   8.000000             11        175.00000
##  7    67.000000  52.000000              0          0.00000
##  8     0.000000   2.000000              0          5.00000
##  9     5.000000  12.000000              0          0.00000
## 10     0.000000   6.068576              0         24.19806
## # ... with 67,659 more rows, and 18 more variables:
## #   forecast_6_month <dbl>, forecast_9_month <dbl>,
## #   sales_1_month <dbl>, sales_3_month <dbl>, sales_6_month <dbl>,
## #   sales_9_month <dbl>, min_bank <dbl>, potential_issue <dbl>,
## #   pieces_past_due <dbl>, perf_6_month_avg <dbl>,
## #   perf_12_month_avg <dbl>, local_bo_qty <dbl>, deck_risk <dbl>,
## #   oe_constraint <dbl>, ppap_risk <dbl>, stop_auto_buy <dbl>,
## #   rev_stop <dbl>, went_on_backorder <fctr>
…
#### Making Predictions

We use `h2o.predict()` to make our predictions on the test set. The data is still stored as an `h2o` object, but we can easily convert to a data frame with `as.tibble()`. Note that the left column ("predict") is the class prediction, and columns "p0" and "p1" are the probabilities.  


{% highlight r %}
pred_h2o <- h2o.predict(automl_leader, newdata = test_h2o)
as.tibble(pred_h2o)
{% endhighlight %}



{% highlight text %}
## # A tibble: 242,075 x 3
##    predict        p0         p1
##     <fctr>     <dbl>      <dbl>
##  1       0 0.9838573 0.01614266
##  2       0 0.9378156 0.06218435
##  3       0 0.9663659 0.03363410
##  4       0 0.9233651 0.07663488
##  5       0 0.9192454 0.08075463
##  6       0 0.9159785 0.08402145
##  7       0 0.8662870 0.13371302
##  8       0 0.9833785 0.01662152
##  9       0 0.9805942 0.01940576
## 10       0 0.9162502 0.08374984
## # ... with 242,065 more rows
…
#### The Cutoff (Threshold)

The cutoff (also known as threshold) is the value that divides the predictions. If we recall, the prediction output has three columns: "predict", "p0", and "p1". The first column, "predict" (model predictions) uses an automatically determined threshold value as the cutoff. Everything above is classified as "Yes" and below as "No".


{% highlight r %}
# predictions are based on p1_cutoff
as.tibble(pred_h2o)
{% endhighlight %}



{% highlight text %}
## # A tibble: 242,075 x 3
##    predict        p0         p1
##     <fctr>     <dbl>      <dbl>
##  1       0 0.9838573 0.01614266
##  2       0 0.9378156 0.06218435
##  3       0 0.9663659 0.03363410
##  4       0 0.9233651 0.07663488
##  5       0 0.9192454 0.08075463
##  6       0 0.9159785 0.08402145
##  7       0 0.8662870 0.13371302
##  8       0 0.9833785 0.01662152
##  9       0 0.9805942 0.01940576
## 10       0 0.9162502 0.08374984
## # ... with 242,065 more rows
…
Luckily, we can retrieve the rates by cutoff conveniently using `h2o.metric()`. Huzzah!


{% highlight r %}
# Get expected rates by cutoff
expected_rates <- h2o.metric(perf_h2o) %>%
    as.tibble() %>%
    select(threshold, tpr, fpr, fnr, tnr)
expected_rates
{% endhighlight %}



{% highlight text %}
## # A tibble: 400 x 5
##    threshold         tpr          fpr       fnr       tnr
##        <dbl>       <dbl>        <dbl>     <dbl>     <dbl>
##  1 0.9933572 0.003348214 2.506402e-05 0.9966518 0.9999749
##  2 0.9855898 0.004464286 4.177336e-05 0.9955357 0.9999582
##  3 0.9706335 0.005952381 8.354673e-05 0.9940476 0.9999165
##  4 0.9604183 0.010416667 1.420294e-04 0.9895833 0.9998580
##  5 0.9513270 0.013020833 1.879801e-04 0.9869792 0.9998120
##  6 0.9423699 0.014508929 2.339308e-04 0.9854911 0.9997661
##  7 0.9320206 0.017113095 3.216549e-04 0.9828869 0.9996783
##  8 0.9201693 0.020833333 4.052016e-04 0.9791667 0.9995948
##  9 0.9113555 0.023437500 4.511523e-04 0.9765625 0.9995488
## 10 0.9061218 0.025297619 5.472311e-04 0.9747024 0.9994528
## # ... with 390 more rows
…
{% highlight text %}
## # A tibble: 4,000 x 4
##     item    p1 threshold expected_profit_extended
##    <dbl> <dbl>     <dbl>                    <dbl>
##  1     1  0.02 0.9933572               0.06512208
##  2     1  0.02 0.9855898               0.08621537
##  3     1  0.02 0.9706335               0.11290693
##  4     1  0.02 0.9604183               0.19789417
##  5     1  0.02 0.9513270               0.24660013
##  6     1  0.02 0.9423699               0.27298466
##  7     1  0.02 0.9320206               0.31862027
##  8     1  0.02 0.9201693               0.38688435
##  9     1  0.02 0.9113555               0.43559030
## 10     1  0.02 0.9061218               0.46573090
## # ... with 3,990 more rows
…
