…
{% highlight text %}
## # A tibble: 1,629 x 7
## # Groups:   package [9]
##    package       date count  mean stdev hi.95 lo.95
##      <chr>     <date> <dbl> <dbl> <dbl> <dbl> <dbl>
##  1   tidyr 2017-01-01   873    NA    NA    NA    NA
##  2   tidyr 2017-01-02  1840    NA    NA    NA    NA
##  3   tidyr 2017-01-03  2495    NA    NA    NA    NA
##  4   tidyr 2017-01-04  2906    NA    NA    NA    NA
##  5   tidyr 2017-01-05  2847    NA    NA    NA    NA
##  6   tidyr 2017-01-06  2756    NA    NA    NA    NA
##  7   tidyr 2017-01-07  1439    NA    NA    NA    NA
##  8   tidyr 2017-01-08  1556    NA    NA    NA    NA
##  9   tidyr 2017-01-09  3678    NA    NA    NA    NA
## 10   tidyr 2017-01-10  7086    NA    NA    NA    NA
## # ... with 1,619 more rows
…
