…
We'll get data using the `tq_get()` function from `tidyquant`. The data comes from FRED: [Beer, Wine, and Distilled Alcoholic Beverages Sales](https://fred.stlouisfed.org/series/S4248SM144NCEN).


{% highlight r %}
# Beer, Wine, Distilled Alcoholic Beverages, in Millions USD
beer_sales_tbl <- tq_get("S4248SM144NCEN", get = "economic.data", from = "2010-01-01", to = "2016-12-31")

beer_sales_tbl
{% endhighlight %}



{% highlight text %}
## # A tibble: 84 x 2
##          date price
##        <date> <int>
##  1 2010-01-01  6558
##  2 2010-02-01  7481
##  3 2010-03-01  9475
##  4 2010-04-01  9424
##  5 2010-05-01  9351
##  6 2010-06-01 10552
##  7 2010-07-01  9077
##  8 2010-08-01  9273
##  9 2010-09-01  9420
## 10 2010-10-01  9413
## # ... with 74 more rows
…
#### Step 0: Review data

Just to show our starting point, let's print out our `beer_sales_tbl`. 


{% highlight r %}
# Starting point
beer_sales_tbl
{% endhighlight %}



{% highlight text %}
## # A tibble: 84 x 2
##          date price
##        <date> <int>
##  1 2010-01-01  6558
##  2 2010-02-01  7481
##  3 2010-03-01  9475
##  4 2010-04-01  9424
##  5 2010-05-01  9351
##  6 2010-06-01 10552
##  7 2010-07-01  9077
##  8 2010-08-01  9273
##  9 2010-09-01  9420
## 10 2010-10-01  9413
## # ... with 74 more rows
…
The `tk_augment_timeseries_signature()` function expands out the timestamp information column-wise into a machine learning feature set, adding columns of time series information to the original data frame. 


{% highlight r %}
# Augment (adds data frame columns)
beer_sales_tbl_aug <- beer_sales_tbl %>%
    tk_augment_timeseries_signature()

beer_sales_tbl_aug
{% endhighlight %}



{% highlight text %}
## # A tibble: 84 x 30
##          date price  index.num    diff  year year.iso  half quarter
##        <date> <int>      <int>   <int> <int>    <int> <int>   <int>
##  1 2010-01-01  6558 1262304000      NA  2010     2009     1       1
##  2 2010-02-01  7481 1264982400 2678400  2010     2010     1       1
##  3 2010-03-01  9475 1267401600 2419200  2010     2010     1       1
##  4 2010-04-01  9424 1270080000 2678400  2010     2010     1       2
##  5 2010-05-01  9351 1272672000 2592000  2010     2010     1       2
##  6 2010-06-01 10552 1275350400 2678400  2010     2010     1       2
##  7 2010-07-01  9077 1277942400 2592000  2010     2010     2       3
##  8 2010-08-01  9273 1280620800 2678400  2010     2010     2       3
##  9 2010-09-01  9420 1283299200 2678400  2010     2010     2       3
## 10 2010-10-01  9413 1285891200 2592000  2010     2010     2       4
## # ... with 74 more rows, and 22 more variables: month <int>,
## #   month.xts <int>, month.lbl <ord>, day <int>, hour <int>,
## #   minute <int>, second <int>, hour12 <int>, am.pm <int>,
## #   wday <int>, wday.xts <int>, wday.lbl <ord>, mday <int>,
## #   qday <int>, yday <int>, mweek <int>, week <int>, week.iso <int>,
## #   week2 <int>, week3 <int>, week4 <int>, mday7 <int>
…
We can also go from `xts` back to `tbl`. We tack on `rename_index = "date"` to have the index name match what we started with. This used to be very difficult. Notice that 


{% highlight r %}
tk_tbl(beer_sales_xts, rename_index = "date")
{% endhighlight %}



{% highlight text %}
## # A tibble: 84 x 2
##          date price
##        <date> <int>
##  1 2010-01-01  6558
##  2 2010-02-01  7481
##  3 2010-03-01  9475
##  4 2010-04-01  9424
##  5 2010-05-01  9351
##  6 2010-06-01 10552
##  7 2010-07-01  9077
##  8 2010-08-01  9273
##  9 2010-09-01  9420
## 10 2010-10-01  9413
## # ... with 74 more rows
…
1. Just coerce back using `tk_tbl()` and we get the "regular" index as YEARMON data type from `zoo`.
2. If the object was created with `tk_ts()` and has a `timetk_index`, we can coerce back using `tk_tbl(timetk_index = TRUE)` and we get the original "irregular" index as Date data type. 

__Method 1__: We go back to `tbl`. Note that the date column is YEARMON class. 


{% highlight r %}
tk_tbl(beer_sales_ts, rename_index = "date")
{% endhighlight %}



{% highlight text %}
## # A tibble: 84 x 2
##             date price
##    <S3: yearmon> <int>
##  1      Jan 2010  6558
##  2      Feb 2010  7481
##  3      Mar 2010  9475
##  4      Apr 2010  9424
##  5      May 2010  9351
##  6      Jun 2010 10552
##  7      Jul 2010  9077
##  8      Aug 2010  9273
##  9      Sep 2010  9420
## 10      Oct 2010  9413
## # ... with 74 more rows
…
If `TRUE`, then specify `timetk_idx = TRUE` during the `tk_tbl()` coercion. See that we now have "date" data type. This was previously very difficult to do.


{% highlight r %}
# If timetk_idx is present, can get original dates back 
tk_tbl(beer_sales_ts, timetk_idx = TRUE, rename_index = "date")
{% endhighlight %}



{% highlight text %}
## # A tibble: 84 x 2
##          date price
##        <date> <int>
##  1 2010-01-01  6558
##  2 2010-02-01  7481
##  3 2010-03-01  9475
##  4 2010-04-01  9424
##  5 2010-05-01  9351
##  6 2010-06-01 10552
##  7 2010-07-01  9077
##  8 2010-08-01  9273
##  9 2010-09-01  9420
## 10 2010-10-01  9413
## # ... with 74 more rows
…
