…
I used one of my favorite packages for data investigation, `skimr`. This package helps me understand how much missing data I'm dealing with and overall sense of the data by data type. 

Normally I just run `skim()` on the data. However, for the purposes of outputting in a readable format on the web, I'll use `skim_to_list()`



{% highlight r %}
skim_to_list(x_train_tbl)
{% endhighlight %}



{% highlight text %}
## $integer
## # A tibble: 40 x 12
##    variable  missing complete n      mean   sd     p0    p25   median
##  * <chr>     <chr>   <chr>    <chr>  <chr>  <chr>  <chr> <chr> <chr> 
##  1 CNT_CHIL~ 0       307511   307511 "    ~ "    ~ 0     "   ~ 0     
##  2 DAYS_BIR~ 0       307511   307511 "-160~ "  43~ -252~ "-19~ -15750
##  3 DAYS_EMP~ 0       307511   307511 " 638~ "1412~ -179~ " -2~ -1213 
##  4 DAYS_ID_~ 0       307511   307511 " -29~ "  15~ -7197 " -4~ -3254 
##  5 FLAG_CON~ 0       307511   307511 "    ~ "    ~ 0     "   ~ 1     
##  6 FLAG_DOC~ 0       307511   307511 "    ~ "    ~ 0     "   ~ 0     
##  7 FLAG_DOC~ 0       307511   307511 "    ~ "    ~ 0     "   ~ 0     
##  8 FLAG_DOC~ 0       307511   307511 "    ~ "    ~ 0     "   ~ 0     
##  9 FLAG_DOC~ 0       307511   307511 "    ~ "    ~ 0     "   ~ 0     
## 10 FLAG_DOC~ 0       307511   307511 "    ~ "    ~ 0     "   ~ 0     
## # ... with 30 more rows, and 3 more variables: p75 <chr>, p100 <chr>,
## #   hist <chr>
## 
## $character
…
##  5 FONDKAPREMONT_M~ 210295  97216    3075~ 13    21    0     4       
##  6 HOUSETYPE_MODE   154297  153214   3075~ 14    16    0     3       
##  7 NAME_CONTRACT_T~ 0       307511   3075~ 10    15    0     2       
##  8 NAME_EDUCATION_~ 0       307511   3075~ 15    29    0     5       
##  9 NAME_FAMILY_STA~ 0       307511   3075~ 5     20    0     6       
## 10 NAME_HOUSING_TY~ 0       307511   3075~ 12    19    0     6       
## 11 NAME_INCOME_TYPE 0       307511   3075~ 7     20    0     8       
## 12 NAME_TYPE_SUITE  1292    306219   3075~ 6     15    0     7       
## 13 OCCUPATION_TYPE  96391   211120   3075~ 7     21    0     18      
## 14 ORGANIZATION_TY~ 0       307511   3075~ 3     22    0     58      
## 15 WALLSMATERIAL_M~ 156341  151170   3075~ 5     12    0     7       
## 16 WEEKDAY_APPR_PR~ 0       307511   3075~ 6     9     0     7       
## 
## $numeric
## # A tibble: 65 x 12
##    variable   missing complete n      mean   sd    p0    p25   median
##  * <chr>      <chr>   <chr>    <chr>  <chr>  <chr> <chr> <chr> <chr> 
##  1 AMT_ANNUI~ 12      307499   307511 " 271~ " 14~ "  1~ " 16~ " 249~
##  2 AMT_CREDIT 0       307511   307511 " 6e+~ " 4e~ " 45~ "270~ "5135~
##  3 AMT_GOODS~ 278     307233   307511 "5383~ "369~ " 40~ "238~ "4500~
##  4 AMT_INCOM~ 0       307511   307511 "1687~ "237~ " 25~ "112~ "1471~
##  5 AMT_REQ_C~ 41519   265992   307511 "    ~ "   ~ "   ~ "   ~ "    ~
##  6 AMT_REQ_C~ 41519   265992   307511 "    ~ "   ~ "   ~ "   ~ "    ~
##  7 AMT_REQ_C~ 41519   265992   307511 "    ~ "   ~ "   ~ "   ~ "    ~
##  8 AMT_REQ_C~ 41519   265992   307511 "    ~ "   ~ "   ~ "   ~ "    ~
##  9 AMT_REQ_C~ 41519   265992   307511 "    ~ "   ~ "   ~ "   ~ "    ~
## 10 AMT_REQ_C~ 41519   265992   307511 "    ~ "   ~ "   ~ "   ~ "    ~
## # ... with 55 more rows, and 3 more variables: p75 <chr>, p100 <chr>,
## #   hist <chr>
…
{% highlight r %}
unique_numeric_values_tbl <- x_train_tbl %>%
    select_if(is.numeric) %>%
    map_df(~ unique(.) %>% length()) %>%
    gather() %>%
    arrange(value) %>%
    mutate(key = as_factor(key))

unique_numeric_values_tbl
{% endhighlight %}



{% highlight text %}
## # A tibble: 105 x 2
##    key                         value
##    <fct>                       <int>
##  1 FLAG_MOBIL                      2
##  2 FLAG_EMP_PHONE                  2
##  3 FLAG_WORK_PHONE                 2
##  4 FLAG_CONT_MOBILE                2
##  5 FLAG_PHONE                      2
##  6 FLAG_EMAIL                      2
##  7 REG_REGION_NOT_LIVE_REGION      2
##  8 REG_REGION_NOT_WORK_REGION      2
##  9 LIVE_REGION_NOT_WORK_REGION     2
## 10 REG_CITY_NOT_LIVE_CITY          2
## # ... with 95 more rows
…
{% highlight r %}
missing_tbl <- x_train_tbl %>%
    summarize_all(.funs = ~ sum(is.na(.)) / length(.)) %>%
    gather() %>%
    arrange(desc(value)) %>%
    filter(value > 0)

missing_tbl
{% endhighlight %}



{% highlight text %}
## # A tibble: 67 x 2
##    key                      value
##    <chr>                    <dbl>
##  1 COMMONAREA_AVG           0.699
##  2 COMMONAREA_MODE          0.699
##  3 COMMONAREA_MEDI          0.699
##  4 NONLIVINGAPARTMENTS_AVG  0.694
##  5 NONLIVINGAPARTMENTS_MODE 0.694
##  6 NONLIVINGAPARTMENTS_MEDI 0.694
##  7 FONDKAPREMONT_MODE       0.684
##  8 LIVINGAPARTMENTS_AVG     0.684
##  9 LIVINGAPARTMENTS_MODE    0.684
## 10 LIVINGAPARTMENTS_MEDI    0.684
## # ... with 57 more rows
…
prediction_tbl
{% endhighlight %}



{% highlight text %}
## # A tibble: 48,744 x 2
##    SK_ID_CURR TARGET
##         <int>  <dbl>
##  1     100001 0.0632
##  2     100005 0.0969
##  3     100013 0.0516
##  4     100028 0.0418
##  5     100038 0.0892
##  6     100042 0.0477
##  7     100057 0.0367
##  8     100065 0.0613
##  9     100066 0.0348
## 10     100067 0.131 
## # ... with 48,734 more rows
…
