…
### Step 3: Collect Time Series Data

We've provided a dataset, `tidyverse_cran_downloads`, to get you up and running. The dataset consists of daily download counts of 15 "tidyverse" packages.


{% highlight r %}
tidyverse_cran_downloads
{% endhighlight %}



{% highlight text %}
## # A tibble: 6,375 x 3
## # Groups:   package [15]
##    date       count package
##    <date>     <dbl> <chr>  
##  1 2017-01-01  873. tidyr  
##  2 2017-01-02 1840. tidyr  
##  3 2017-01-03 2495. tidyr  
##  4 2017-01-04 2906. tidyr  
##  5 2017-01-05 2847. tidyr  
##  6 2017-01-06 2756. tidyr  
##  7 2017-01-07 1439. tidyr  
##  8 2017-01-08 1556. tidyr  
##  9 2017-01-09 3678. tidyr  
## 10 2017-01-10 7086. tidyr  
## # ... with 6,365 more rows
…
