…
### 4.8 Collecting The Data

Note that up until now, ___nothing has been done to process the data___ - we've just created a _recipe_ for data wrangling. We still need tell `dtplyr` to execute the data wrangling operations. 

To implement all of the steps and convert the `dtplyr` sequence to a `tibble`, we just call `as_tibble()`.


{% highlight r %}
final_output_dtplyr %>% as_tibble()
{% endhighlight %}



{% highlight text %}
## # A tibble: 3,352,231 x 4
##    gt_1mo_behind_in_… loan_id  monthly_reporting… current_loan_delinq…
##    <lgl>              <fct>    <date>                            <dbl>
##  1 FALSE              1000010… 2018-02-01                            0
##  2 FALSE              1000010… 2018-03-01                            0
##  3 FALSE              1000010… 2018-04-01                            0
##  4 FALSE              1000010… 2018-05-01                            0
##  5 FALSE              1000010… 2018-06-01                            0
##  6 FALSE              1000010… 2018-07-01                            0
##  7 FALSE              1000010… 2018-08-01                            0
##  8 FALSE              1000010… 2018-09-01                            0
##  9 FALSE              1000023… 2018-03-01                            0
## 10 FALSE              1000023… 2018-04-01                            0
## # … with 3,352,221 more rows
…
