…
### R Pivot Table

Excel's Pivot Table now in `R` with `pivot_table()`. Let's try it out.

First, let's get some raw data. The `FANG` data set ships with `tidyquant` and represents the ouput of the `tq_get(c("FB", "AMZN", "NFLX", "GOOG"))` from 2013 to 2016. This is raw OHLCV data with adjusted stock prices downloaded from Yahoo Finance.  


{% highlight r %}
FANG
{% endhighlight %}



{% highlight text %}
## # A tibble: 4,032 x 8
##    symbol date        open  high   low close    volume adjusted
##    <chr>  <date>     <dbl> <dbl> <dbl> <dbl>     <dbl>    <dbl>
##  1 FB     2013-01-02  27.4  28.2  27.4  28    69846400     28  
##  2 FB     2013-01-03  27.9  28.5  27.6  27.8  63140600     27.8
##  3 FB     2013-01-04  28.0  28.9  27.8  28.8  72715400     28.8
##  4 FB     2013-01-07  28.7  29.8  28.6  29.4  83781800     29.4
##  5 FB     2013-01-08  29.5  29.6  28.9  29.1  45871300     29.1
##  6 FB     2013-01-09  29.7  30.6  29.5  30.6 104787700     30.6
##  7 FB     2013-01-10  30.6  31.5  30.3  31.3  95316400     31.3
##  8 FB     2013-01-11  31.3  32.0  31.1  31.7  89598000     31.7
##  9 FB     2013-01-14  32.1  32.2  30.6  31.0  98892800     31.0
## 10 FB     2013-01-15  30.6  31.7  29.9  30.1 173242600     30.1
## # … with 4,022 more rows
…
### More Powerful VLOOKUP Case

Let's try the more __Powerful Case__ - pulling in a column of matched lookup values. We can do this by using the `mutate()` function from `dplyr`. This works because `VLOOKUP()` is vectorized. 


{% highlight r %}
FANG %>%
    mutate(company = VLOOKUP(symbol, lookup_table, stock, company))
{% endhighlight %}



{% highlight text %}
## # A tibble: 4,032 x 9
##    symbol date        open  high   low close    volume adjusted company 
##    <chr>  <date>     <dbl> <dbl> <dbl> <dbl>     <dbl>    <dbl> <chr>   
##  1 FB     2013-01-02  27.4  28.2  27.4  28    69846400     28   Facebook
##  2 FB     2013-01-03  27.9  28.5  27.6  27.8  63140600     27.8 Facebook
##  3 FB     2013-01-04  28.0  28.9  27.8  28.8  72715400     28.8 Facebook
##  4 FB     2013-01-07  28.7  29.8  28.6  29.4  83781800     29.4 Facebook
##  5 FB     2013-01-08  29.5  29.6  28.9  29.1  45871300     29.1 Facebook
##  6 FB     2013-01-09  29.7  30.6  29.5  30.6 104787700     30.6 Facebook
##  7 FB     2013-01-10  30.6  31.5  30.3  31.3  95316400     31.3 Facebook
##  8 FB     2013-01-11  31.3  32.0  31.1  31.7  89598000     31.7 Facebook
##  9 FB     2013-01-14  32.1  32.2  30.6  31.0  98892800     31.0 Facebook
## 10 FB     2013-01-15  30.6  31.7  29.9  30.1 173242600     30.1 Facebook
## # … with 4,022 more rows
…
    # Collapse from daily to FIRST value by month
    summarise_by_time(
        .date_var  = date,
        .by        = "month",
        adjusted   = FIRST(adjusted)
    )
{% endhighlight %}



{% highlight text %}
## # A tibble: 192 x 3
## # Groups:   symbol [4]
##    symbol date       adjusted
##    <chr>  <date>        <dbl>
##  1 AMZN   2013-01-01     257.
##  2 AMZN   2013-02-01     265 
##  3 AMZN   2013-03-01     266.
##  4 AMZN   2013-04-01     262.
##  5 AMZN   2013-05-01     248.
##  6 AMZN   2013-06-01     267.
##  7 AMZN   2013-07-01     282.
##  8 AMZN   2013-08-01     306.
##  9 AMZN   2013-09-01     289.
## 10 AMZN   2013-10-01     321.
## # … with 182 more rows
…
