…
We'll start with a `bike_sharing_daily` time series data set that includes bike transactions. We'll simplify the data set to a univariate time series with columns, "date" and "value".


{% highlight r %}
bike_transactions_tbl <- bike_sharing_daily %>%
  select(dteday, cnt) %>%
  set_names(c("date", "value")) 

bike_transactions_tbl
{% endhighlight %}



{% highlight text %}
## # A tibble: 731 x 2
##    date       value
##    <date>     <dbl>
##  1 2011-01-01   985
##  2 2011-01-02   801
##  3 2011-01-03  1349
##  4 2011-01-04  1562
##  5 2011-01-05  1600
##  6 2011-01-06  1606
##  7 2011-01-07  1510
##  8 2011-01-08   959
##  9 2011-01-09   822
## 10 2011-01-10  1321
## # â€¦ with 721 more rows
…
{% highlight r %}
recipe_spec <- recipe(value ~ date, training(splits)) %>%
  step_timeseries_signature(date) %>%
  step_rm(contains("am.pm"), contains("hour"), contains("minute"),
          contains("second"), contains("xts")) %>%
  step_fourier(date, period = 365, K = 5) %>%
  step_dummy(all_nominal())

recipe_spec %>% prep() %>% juice()
{% endhighlight %}



{% highlight text %}
## # A tibble: 641 x 47
##    date       value date_index.num date_year date_year.iso date_half
##    <date>     <dbl>          <int>     <int>         <int>     <int>
##  1 2011-01-01   985     1293840000      2011          2010         1
##  2 2011-01-02   801     1293926400      2011          2010         1
##  3 2011-01-03  1349     1294012800      2011          2011         1
##  4 2011-01-04  1562     1294099200      2011          2011         1
##  5 2011-01-05  1600     1294185600      2011          2011         1
##  6 2011-01-06  1606     1294272000      2011          2011         1
##  7 2011-01-07  1510     1294358400      2011          2011         1
##  8 2011-01-08   959     1294444800      2011          2011         1
##  9 2011-01-09   822     1294531200      2011          2011         1
## 10 2011-01-10  1321     1294617600      2011          2011         1
## # â€¦ with 631 more rows, and 41 more variables: date_quarter <int>,
## #   date_month <int>, date_day <int>, date_wday <int>, date_mday <int>,
## #   date_qday <int>, date_yday <int>, date_mweek <int>, date_week <int>,
## #   date_week.iso <int>, date_week2 <int>, date_week3 <int>, date_week4 <int>,
## #   date_mday7 <int>, date_sin365_K1 <dbl>, date_cos365_K1 <dbl>,
## #   date_sin365_K2 <dbl>, date_cos365_K2 <dbl>, date_sin365_K3 <dbl>,
## #   date_cos365_K3 <dbl>, date_sin365_K4 <dbl>, date_cos365_K4 <dbl>,
## #   date_sin365_K5 <dbl>, date_cos365_K5 <dbl>, date_month.lbl_01 <dbl>,
## #   date_month.lbl_02 <dbl>, date_month.lbl_03 <dbl>, date_month.lbl_04 <dbl>,
…
