…
{% include cta_rtrack.html %}

## Plotting a Single Time Series

Let's start with a popular time series, `taylor_30_min`, which includes energy demand in megawatts at a sampling interval of 30-minutes. This is a single time series. 


{% highlight r %}
taylor_30_min
{% endhighlight %}



{% highlight text %}
## # A tibble: 4,032 x 2
##    date                value
##    <dttm>              <dbl>
##  1 2000-06-05 00:00:00 22262
##  2 2000-06-05 00:30:00 21756
##  3 2000-06-05 01:00:00 22247
##  4 2000-06-05 01:30:00 22759
##  5 2000-06-05 02:00:00 22549
##  6 2000-06-05 02:30:00 22313
##  7 2000-06-05 03:00:00 22128
##  8 2000-06-05 03:30:00 21860
##  9 2000-06-05 04:00:00 21751
## 10 2000-06-05 04:30:00 21336
## # … with 4,022 more rows
…
