…
One category that doesn't show up in the plot is "market_category". This has 72 unique values - too many to plot. Let's take a look. 


{% highlight r %}
car_prices_tbl %>% count(market_category, sort = TRUE)
{% endhighlight %}



{% highlight text %}
## # A tibble: 72 x 2
##    market_category             n
##    <chr>                   <int>
##  1 N/A                      3742
##  2 Crossover                1110
##  3 Flex Fuel                 872
##  4 Luxury                    855
##  5 Luxury,Performance        673
##  6 Hatchback                 641
##  7 Performance               601
##  8 Crossover,Luxury          410
##  9 Luxury,High-Performance   334
## 10 Exotic,High-Performance   261
## # … with 62 more rows
…
Next, we set up the grid space. Because this is now a 3-Dimensional Hyperparameter Space, I up the size of the grid to 30 points. Note that this will drastically increase the time it takes to tune the models because the `xgboost` algorithm must be run 30 x 5 = 150 times. Each time it runs with 1000 trees, so we are talking 150,000 tree calculations. My point is that it will take a bit to run the algorithm once we get to _Section 5.6 Hyperparameter Tuning_. 


{% highlight r %}
set.seed(123)
xgboost_grid <- grid_max_entropy(xgboost_params, size = 30)
xgboost_grid
{% endhighlight %}



{% highlight text %}
## # A tibble: 30 x 3
##    min_n tree_depth    learn_rate
##    <int>      <int>         <dbl>
##  1    39          1 0.00000106   
##  2    37          9 0.000749     
##  3     2          9 0.0662       
##  4    27          9 0.00000585   
##  5     5         14 0.00000000259
##  6    17          2 0.000413     
##  7    34         11 0.0000000522 
##  8    10          4 0.0856       
##  9    28          3 0.000000156  
## 10    24          8 0.00159      
## # … with 20 more rows
…
{% highlight r %}
dodge_rams_tbl <- tibble(year = 2017:1990) %>%
    bind_rows(dodge_ram_tbl) %>%
    fill(names(.), .direction = "up") %>%
    distinct()

dodge_rams_tbl
{% endhighlight %}



{% highlight text %}
## # A tibble: 28 x 15
##     year make  model engine_fuel_type engine_hp engine_cylinders
##    <dbl> <chr> <chr> <chr>                <dbl>            <dbl>
##  1  2017 Dodge Ram … regular unleaded       300                8
##  2  2016 Dodge Ram … regular unleaded       300                8
##  3  2015 Dodge Ram … regular unleaded       300                8
##  4  2014 Dodge Ram … regular unleaded       300                8
##  5  2013 Dodge Ram … regular unleaded       300                8
##  6  2012 Dodge Ram … regular unleaded       300                8
##  7  2011 Dodge Ram … regular unleaded       300                8
##  8  2010 Dodge Ram … regular unleaded       300                8
##  9  2009 Dodge Ram … regular unleaded       300                8
## 10  2008 Dodge Ram … regular unleaded       300                8
## # … with 18 more rows, and 9 more variables: transmission_type <chr>,
## #   driven_wheels <chr>, number_of_doors <chr>, market_category <chr>,
## #   vehicle_size <chr>, vehicle_style <chr>, highway_mpg <dbl>, city_mpg <dbl>,
## #   popularity <dbl>
…
