…
# Modeling

Start with the training set, which has the "date" and "value" columns.  


{% highlight r %}
# Training set
train_tbl
{% endhighlight %}



{% highlight text %}
## # A tibble: 547 x 2
##    date       value
##    <date>     <dbl>
##  1 2011-01-01   985
##  2 2011-01-02   801
##  3 2011-01-03  1349
##  4 2011-01-04  1562
##  5 2011-01-05  1600
##  6 2011-01-06  1606
##  7 2011-01-07  1510
##  8 2011-01-08   959
##  9 2011-01-09   822
## 10 2011-01-10  1321
## # â€¦ with 537 more rows
…
When we apply the prepared recipe `prep()` using the `bake()` function, __we go from 2 features to 29 features!__ Yes, 25+ new columns were added from the timestamp "date" feature. These are features we can use in our machine learning models and build on top of. . 


{% highlight r %}
bake(prep(recipe_spec_timeseries), new_data = train_tbl)
{% endhighlight %}



{% highlight text %}
## # A tibble: 547 x 29
##    date       value date_index.num date_year date_year.iso date_half
##    <date>     <dbl>          <int>     <int>         <int>     <int>
##  1 2011-01-01   985     1293840000      2011          2010         1
##  2 2011-01-02   801     1293926400      2011          2010         1
##  3 2011-01-03  1349     1294012800      2011          2011         1
##  4 2011-01-04  1562     1294099200      2011          2011         1
##  5 2011-01-05  1600     1294185600      2011          2011         1
##  6 2011-01-06  1606     1294272000      2011          2011         1
##  7 2011-01-07  1510     1294358400      2011          2011         1
##  8 2011-01-08   959     1294444800      2011          2011         1
##  9 2011-01-09   822     1294531200      2011          2011         1
## 10 2011-01-10  1321     1294617600      2011          2011         1
## # â€¦ with 537 more rows, and 23 more variables: date_quarter <int>,
## #   date_month <int>, date_month.xts <int>, date_month.lbl <ord>,
## #   date_day <int>, date_hour <int>, date_minute <int>, date_second <int>,
## #   date_hour12 <int>, date_am.pm <int>, date_wday <int>, date_wday.xts <int>,
## #   date_wday.lbl <ord>, date_mday <int>, date_qday <int>, date_yday <int>,
## #   date_mweek <int>, date_week <int>, date_week.iso <int>, date_week2 <int>,
## #   date_week3 <int>, date_week4 <int>, date_mday7 <int>
…
bake(prep(recipe_spec_final), new_data = train_tbl)
{% endhighlight %}



{% highlight text %}
## # A tibble: 547 x 225
##    value date_index.num date_year date_half date_quarter date_month date_day
##    <dbl>          <dbl>     <dbl>     <int>        <int>      <int>    <int>
##  1   985          -1.73    -0.705         1            1          1        1
##  2   801          -1.72    -0.705         1            1          1        2
##  3  1349          -1.71    -0.705         1            1          1        3
##  4  1562          -1.71    -0.705         1            1          1        4
##  5  1600          -1.70    -0.705         1            1          1        5
##  6  1606          -1.70    -0.705         1            1          1        6
##  7  1510          -1.69    -0.705         1            1          1        7
##  8   959          -1.68    -0.705         1            1          1        8
##  9   822          -1.68    -0.705         1            1          1        9
## 10  1321          -1.67    -0.705         1            1          1       10
## # â€¦ with 537 more rows, and 218 more variables: date_wday <int>,
## #   date_mday <int>, date_qday <int>, date_yday <int>, date_mweek <int>,
## #   date_week <int>, date_week2 <int>, date_week3 <int>, date_week4 <int>,
## #   date_mday7 <int>, date_month.lbl.L_x_date_day <dbl>,
## #   date_month.lbl.Q_x_date_day <dbl>, date_month.lbl.C_x_date_day <dbl>,
## #   `date_month.lbl^4_x_date_day` <dbl>, `date_month.lbl^5_x_date_day` <dbl>,
## #   `date_month.lbl^6_x_date_day` <dbl>, `date_month.lbl^7_x_date_day` <dbl>,
## #   `date_month.lbl^8_x_date_day` <dbl>, `date_month.lbl^9_x_date_day` <dbl>,
## #   `date_month.lbl^10_x_date_day` <dbl>, `date_month.lbl^11_x_date_day` <dbl>,
…
With a suitable model in hand, we can forecast using the "test" set for validation purposes. 


{% highlight r %}
prediction_tbl <- workflow_trained %>% 
    predict(test_tbl) %>%
    bind_cols(test_tbl) 

prediction_tbl
{% endhighlight %}



{% highlight text %}
## # A tibble: 184 x 3
##    .pred date       value
##    <dbl> <date>     <dbl>
##  1 6903. 2012-07-01  5531
##  2 7030. 2012-07-02  6227
##  3 6960. 2012-07-03  6660
##  4 6931. 2012-07-04  7403
##  5 6916. 2012-07-05  6241
##  6 6934. 2012-07-06  6207
##  7 7169. 2012-07-07  4840
##  8 6791. 2012-07-08  4672
##  9 6837. 2012-07-09  6569
## 10 6766. 2012-07-10  6290
## # â€¦ with 174 more rows
…
From the summary, we know that the data is 100% regular because the median and mean differences are 86400 seconds or 1 day. We don't need to do any special inspections when we use `tk_make_future_timeseries()`. If the data was irregular, meaning weekends or holidays were excluded, you'd want to account for this. Otherwise your forecast would be inaccurate.


{% highlight r %}
idx_future <- idx %>% tk_make_future_timeseries(n_future = 180)

future_tbl <- tibble(date = idx_future) 

future_tbl
{% endhighlight %}



{% highlight text %}
## # A tibble: 180 x 1
##    date      
##    <date>    
##  1 2013-01-01
##  2 2013-01-02
##  3 2013-01-03
##  4 2013-01-04
##  5 2013-01-05
##  6 2013-01-06
##  7 2013-01-07
##  8 2013-01-08
##  9 2013-01-09
## 10 2013-01-10
## # â€¦ with 170 more rows
…
