…
{% highlight r %}
library(tidyverse)
library(palmerpenguins)

penguins <- palmerpenguins::penguins  %>%
           filter(!is.na(bill_length_mm))

penguins
{% endhighlight r %}



{% highlight r %}
## # A tibble: 342 x 8
##    species island bill_length_mm bill_depth_mm flipper_length_~ body_mass_g
##    <fct>   <fct>           <dbl>         <dbl>            <int>       <int>
##  1 Adelie  Torge~           39.1          18.7              181        3750
##  2 Adelie  Torge~           39.5          17.4              186        3800
##  3 Adelie  Torge~           40.3          18                195        3250
##  4 Adelie  Torge~           36.7          19.3              193        3450
##  5 Adelie  Torge~           39.3          20.6              190        3650
##  6 Adelie  Torge~           38.9          17.8              181        3625
##  7 Adelie  Torge~           39.2          19.6              195        4675
##  8 Adelie  Torge~           34.1          18.1              193        3475
##  9 Adelie  Torge~           42            20.2              190        4250
## 10 Adelie  Torge~           37.8          17.1              186        3300
## # ... with 332 more rows, and 2 more variables: sex <fct>, year <int>
…
The dataset presents several observations of anatomical parts of penguins of different species, sexes and locations, and the year that the measurements were taken.


# 1. Selecting columns

`tidyselect` helper functions are now built in to allow you to save time by selecting columns using `dplyr::select()` based on common conditions. In this case, if we want to reduce the dataset to just bill measurements we can use this, noting that all measurement columns contain an underscore:

{% highlight r %}
penguins %>% 
  dplyr::select(!contains("_"), starts_with("bill"))
{% endhighlight r %}

{% highlight r %}
## # A tibble: 342 x 6
##    species island    sex     year bill_length_mm bill_depth_mm
##    <fct>   <fct>     <fct>  <int>          <dbl>         <dbl>
##  1 Adelie  Torgersen male    2007           39.1          18.7
##  2 Adelie  Torgersen female  2007           39.5          17.4
##  3 Adelie  Torgersen female  2007           40.3          18  
##  4 Adelie  Torgersen female  2007           36.7          19.3
##  5 Adelie  Torgersen male    2007           39.3          20.6
##  6 Adelie  Torgersen female  2007           38.9          17.8
##  7 Adelie  Torgersen male    2007           39.2          19.6
##  8 Adelie  Torgersen <NA>    2007           34.1          18.1
##  9 Adelie  Torgersen <NA>    2007           42            20.2
## 10 Adelie  Torgersen <NA>    2007           37.8          17.1
## # ... with 332 more rows
…
# 2. Reordering columns

`dplyr::relocate()` allows a new way to reorder specific columns or sets of columns. For example, if we want to make sure that all of the measurement columns are at the end of the dataset, we can use this, noting that my last column is year:

{% highlight r %}
penguins <- penguins %>% 
  dplyr::relocate(contains("_"), .after = year)

penguins
{% endhighlight r %}

{% highlight r %}
## # A tibble: 342 x 8
##    species island sex    year bill_length_mm bill_depth_mm flipper_length_~
##    <fct>   <fct>  <fct> <int>          <dbl>         <dbl>            <int>
##  1 Adelie  Torge~ male   2007           39.1          18.7              181
##  2 Adelie  Torge~ fema~  2007           39.5          17.4              186
##  3 Adelie  Torge~ fema~  2007           40.3          18                195
##  4 Adelie  Torge~ fema~  2007           36.7          19.3              193
##  5 Adelie  Torge~ male   2007           39.3          20.6              190
##  6 Adelie  Torge~ fema~  2007           38.9          17.8              181
##  7 Adelie  Torge~ male   2007           39.2          19.6              195
##  8 Adelie  Torge~ <NA>   2007           34.1          18.1              193
##  9 Adelie  Torge~ <NA>   2007           42            20.2              190
## 10 Adelie  Torge~ <NA>   2007           37.8          17.1              186
## # ... with 332 more rows, and 1 more variable: body_mass_g <int>
…
# 3. Controlling mutated column locations

Note in the `penguins` dataset that there are no unique identifiers for each study group. This can be problematic when we have multiple penguins of the same species, island, sex and year in the dataset. To address this and prepare for later examples, let’s add a unique identifier using `dplyr::mutate()`, and here we can illustrate how `mutate()` now allows us to position our new column in a similar way to `relocate()`:

{% highlight r %}
penguins_id <- penguins %>% 
  dplyr::group_by(species, island, sex, year) %>% 
  dplyr::mutate(studygroupid = row_number(), .before = contains("_"))

penguins_id
{% endhighlight r %}

{% highlight r %}
## # A tibble: 342 x 9
## # Groups:   species, island, sex, year [35]
##    species island sex    year studygroupid bill_length_mm bill_depth_mm
##    <fct>   <fct>  <fct> <int>        <int>          <dbl>         <dbl>
##  1 Adelie  Torge~ male   2007            1           39.1          18.7
##  2 Adelie  Torge~ fema~  2007            1           39.5          17.4
##  3 Adelie  Torge~ fema~  2007            2           40.3          18  
##  4 Adelie  Torge~ fema~  2007            3           36.7          19.3
##  5 Adelie  Torge~ male   2007            2           39.3          20.6
##  6 Adelie  Torge~ fema~  2007            4           38.9          17.8
##  7 Adelie  Torge~ male   2007            3           39.2          19.6
##  8 Adelie  Torge~ <NA>   2007            1           34.1          18.1
##  9 Adelie  Torge~ <NA>   2007            2           42            20.2
## 10 Adelie  Torge~ <NA>   2007            3           37.8          17.1
## # ... with 332 more rows, and 2 more variables: flipper_length_mm <int>,
## #   body_mass_g <int>
…
# 4. Transforming from wide to long

The `penguins` dataset is clearly in a wide form, as it gives multiple observations across the columns. For many reasons we may want to transform data from wide to long. In long data, each observation has its own row. The older function `gather()` in `tidyr` was popular for this sort of task but its new version `pivot_longer()` is even more powerful. In this case we have different body parts, measures and units inside these column names, but we can break them out very simply like this:

{% highlight r %}
penguins_long <- penguins_id %>% 
  tidyr::pivot_longer(contains("_"), # break out the measurement cols
                      names_to = c("part", "measure", "unit"), # break them into these three columns
                      names_sep = "_") #  use the underscore to separate

penguins_long
{% endhighlight r %}

{% highlight r %}
## # A tibble: 1,368 x 9
## # Groups:   species, island, sex, year [35]
##    species island    sex     year studygroupid part    measure unit   value
##    <fct>   <fct>     <fct>  <int>        <int> <chr>   <chr>   <chr>  <dbl>
##  1 Adelie  Torgersen male    2007            1 bill    length  mm      39.1
##  2 Adelie  Torgersen male    2007            1 bill    depth   mm      18.7
##  3 Adelie  Torgersen male    2007            1 flipper length  mm     181  
##  4 Adelie  Torgersen male    2007            1 body    mass    g     3750  
##  5 Adelie  Torgersen female  2007            1 bill    length  mm      39.5
##  6 Adelie  Torgersen female  2007            1 bill    depth   mm      17.4
##  7 Adelie  Torgersen female  2007            1 flipper length  mm     186  
##  8 Adelie  Torgersen female  2007            1 body    mass    g     3800  
##  9 Adelie  Torgersen female  2007            2 bill    length  mm      40.3
## 10 Adelie  Torgersen female  2007            2 bill    depth   mm      18  
## # ... with 1,358 more rows
…
# 5. Transforming from long to wide

It’s just as easy to move back from long to wide. `pivot_wider()` gives much more flexibility compared to the older `spread()`:

{% highlight r %}
penguins_wide <- penguins_long %>% 
  tidyr::pivot_wider(names_from = c("part", "measure", "unit"), # pivot these columns
                     values_from = "value", # take the values from here
                     names_sep = "_") # combine col names using an underscore

penguins_wide
{% endhighlight r %}

{% highlight r %}
## # A tibble: 342 x 9
## # Groups:   species, island, sex, year [35]
##    species island sex    year studygroupid bill_length_mm bill_depth_mm
##    <fct>   <fct>  <fct> <int>        <int>          <dbl>         <dbl>
##  1 Adelie  Torge~ male   2007            1           39.1          18.7
##  2 Adelie  Torge~ fema~  2007            1           39.5          17.4
##  3 Adelie  Torge~ fema~  2007            2           40.3          18  
##  4 Adelie  Torge~ fema~  2007            3           36.7          19.3
##  5 Adelie  Torge~ male   2007            2           39.3          20.6
##  6 Adelie  Torge~ fema~  2007            4           38.9          17.8
##  7 Adelie  Torge~ male   2007            3           39.2          19.6
##  8 Adelie  Torge~ <NA>   2007            1           34.1          18.1
##  9 Adelie  Torge~ <NA>   2007            2           42            20.2
## 10 Adelie  Torge~ <NA>   2007            3           37.8          17.1
## # ... with 332 more rows, and 2 more variables: flipper_length_mm <dbl>,
## #   body_mass_g <dbl>
…
