…
We'll use the `walmart_sales_weekly` time series data set that includes Walmart Product Transactions from several stores, which is a small sample of the dataset from [Kaggle Walmart Recruiting - Store Sales Forecasting](https://www.kaggle.com/c/walmart-recruiting-store-sales-forecasting). We'll simplify the data set to a univariate time series with columns, "Date" and "Weekly_Sales" from Store 1 and Department 1.


{% highlight r %}
store_1_1_tbl <- walmart_sales_weekly %>%
    filter(id == "1_1") %>%
    select(Date, Weekly_Sales)

store_1_1_tbl
{% endhighlight %}



{% highlight text %}
## # A tibble: 143 x 2
##    Date       Weekly_Sales
##    <date>            <dbl>
##  1 2010-02-05       24924.
##  2 2010-02-12       46039.
##  3 2010-02-19       41596.
##  4 2010-02-26       19404.
##  5 2010-03-05       21828.
##  6 2010-03-12       21043.
##  7 2010-03-19       22137.
##  8 2010-03-26       26229.
##  9 2010-04-02       57258.
## 10 2010-04-09       42961.
## # … with 133 more rows
…
{% highlight r %}
recipe_spec <- recipe(Weekly_Sales ~ Date, store_1_1_tbl) %>%
    step_timeseries_signature(Date) %>%
    step_rm(matches("(iso$)|(xts$)|(day)|(hour)|(min)|(sec)|(am.pm)")) %>%
    step_mutate(Date_week = factor(Date_week, ordered = TRUE)) %>%
    step_dummy(all_nominal()) %>%
    step_normalize(contains("index.num"), Date_year)

recipe_spec %>% prep() %>% juice()
{% endhighlight %}



{% highlight text %}
## # A tibble: 143 x 74
##    Date       Weekly_Sales Date_index.num Date_year Date_half Date_quarter
##    <date>            <dbl>          <dbl>     <dbl>     <int>        <int>
##  1 2010-02-05       24924.          -1.71     -1.21         1            1
##  2 2010-02-12       46039.          -1.69     -1.21         1            1
##  3 2010-02-19       41596.          -1.67     -1.21         1            1
##  4 2010-02-26       19404.          -1.64     -1.21         1            1
##  5 2010-03-05       21828.          -1.62     -1.21         1            1
##  6 2010-03-12       21043.          -1.59     -1.21         1            1
##  7 2010-03-19       22137.          -1.57     -1.21         1            1
##  8 2010-03-26       26229.          -1.54     -1.21         1            1
##  9 2010-04-02       57258.          -1.52     -1.21         1            2
## 10 2010-04-09       42961.          -1.50     -1.21         1            2
## # … with 133 more rows, and 68 more variables: Date_month <int>,
## #   Date_mweek <int>, Date_week2 <int>, Date_week3 <int>, Date_week4 <int>,
## #   Date_month.lbl_01 <dbl>, Date_month.lbl_02 <dbl>, Date_month.lbl_03 <dbl>,
## #   Date_month.lbl_04 <dbl>, Date_month.lbl_05 <dbl>, Date_month.lbl_06 <dbl>,
## #   Date_month.lbl_07 <dbl>, Date_month.lbl_08 <dbl>, Date_month.lbl_09 <dbl>,
## #   Date_month.lbl_10 <dbl>, Date_month.lbl_11 <dbl>, Date_week_01 <dbl>,
## #   Date_week_02 <dbl>, Date_week_03 <dbl>, Date_week_04 <dbl>,
## #   Date_week_05 <dbl>, Date_week_06 <dbl>, Date_week_07 <dbl>,
## #   Date_week_08 <dbl>, Date_week_09 <dbl>, Date_week_10 <dbl>,
…
