…
{% highlight r %}
data <- walmart_sales_weekly %>% 
    select(id, Date, Weekly_Sales) %>%
    set_names(c("ID", "date", "value"))

data
{% endhighlight %}



{% highlight text %}
## # A tibble: 1,001 x 3
##    ID    date        value
##    <fct> <date>      <dbl>
##  1 1_1   2010-02-05 24924.
##  2 1_1   2010-02-12 46039.
##  3 1_1   2010-02-19 41596.
##  4 1_1   2010-02-26 19404.
##  5 1_1   2010-03-05 21828.
##  6 1_1   2010-03-12 21043.
##  7 1_1   2010-03-19 22137.
##  8 1_1   2010-03-26 26229.
##  9 1_1   2010-04-02 57258.
## 10 1_1   2010-04-09 42961.
## # … with 991 more rows
…
{% highlight r %}
rec_obj <- recipe(value ~ ., training(splits)) %>%
    step_mutate(ID = droplevels(ID)) %>%
    step_timeseries_signature(date) %>%
    step_rm(date) %>%
    step_zv(all_predictors()) %>%
    step_dummy(all_nominal_predictors(), one_hot = TRUE)

summary(prep(rec_obj))
{% endhighlight %}



{% highlight text %}
## # A tibble: 38 x 4
##    variable       type    role      source  
##    <chr>          <chr>   <chr>     <chr>   
##  1 value          numeric outcome   original
##  2 date_index.num numeric predictor derived 
##  3 date_year      numeric predictor derived 
##  4 date_year.iso  numeric predictor derived 
##  5 date_half      numeric predictor derived 
##  6 date_quarter   numeric predictor derived 
##  7 date_month     numeric predictor derived 
##  8 date_month.xts numeric predictor derived 
##  9 date_day       numeric predictor derived 
## 10 date_mday      numeric predictor derived 
## # … with 28 more rows
…
