…
{% highlight text %}
## # A tibble: 84 x 1
##      .pred
##      <dbl>
##  1  18233.
##  2  31529.
##  3  37662.
##  4  40605.
##  5  74633.
##  6  81293.
##  7 134751.
##  8  17794.
##  9  36732.
## 10  37074.
## # … with 74 more rows
…
