…
We can get a sense of the structure of the data. 

- The "id" feature separates the panels. 
- The "date" feature contains the timestamp information
- The "value" feature is our target for prediction (forecasting)


{% highlight r %}
m4_monthly
{% endhighlight %}



{% highlight text %}
## # A tibble: 1,574 x 3
##    id    date       value
##    <fct> <date>     <dbl>
##  1 M1    1976-06-01  8000
##  2 M1    1976-07-01  8350
##  3 M1    1976-08-01  8570
##  4 M1    1976-09-01  7700
##  5 M1    1976-10-01  7080
##  6 M1    1976-11-01  6520
##  7 M1    1976-12-01  6070
##  8 M1    1977-01-01  6650
##  9 M1    1977-02-01  6830
## 10 M1    1977-03-01  5710
## # … with 1,564 more rows
…
m4_extended <- m4_monthly %>%
    group_by(id) %>%
    future_frame(
        .length_out = FORECAST_HORIZON,
        .bind_data  = TRUE
    ) %>%
    ungroup()

m4_extended
{% endhighlight %}



{% highlight text %}
## # A tibble: 1,670 x 3
##    id    date       value
##    <fct> <date>     <dbl>
##  1 M1    1976-06-01  8000
##  2 M1    1976-07-01  8350
##  3 M1    1976-08-01  8570
##  4 M1    1976-09-01  7700
##  5 M1    1976-10-01  7080
##  6 M1    1976-11-01  6520
##  7 M1    1976-12-01  6070
##  8 M1    1977-01-01  6650
##  9 M1    1977-02-01  6830
## 10 M1    1977-03-01  5710
## # … with 1,660 more rows
…
Then, we apply the function and divide the data into training and future set. Note that the tail of the data has `NA` values in the lagged regressors, which makes the problem a ___Recursive Forecasting problem___. 


{% highlight r %}
m4_lags <- m4_extended %>%
    lag_transformer_grouped()

m4_lags %>% tail(FORECAST_HORIZON)
{% endhighlight %}



{% highlight text %}
## # A tibble: 24 x 27
##    id    date       value value_lag1 value_lag2 value_lag3 value_lag4 value_lag5
##    <fct> <date>     <dbl>      <dbl>      <dbl>      <dbl>      <dbl>      <dbl>
##  1 M1000 2015-07-01    NA       1430        970       1140        800        880
##  2 M1000 2015-08-01    NA         NA       1430        970       1140        800
##  3 M1000 2015-09-01    NA         NA         NA       1430        970       1140
##  4 M1000 2015-10-01    NA         NA         NA         NA       1430        970
##  5 M1000 2015-11-01    NA         NA         NA         NA         NA       1430
##  6 M1000 2015-12-01    NA         NA         NA         NA         NA         NA
##  7 M1000 2016-01-01    NA         NA         NA         NA         NA         NA
##  8 M1000 2016-02-01    NA         NA         NA         NA         NA         NA
##  9 M1000 2016-03-01    NA         NA         NA         NA         NA         NA
## 10 M1000 2016-04-01    NA         NA         NA         NA         NA         NA
## # … with 14 more rows, and 19 more variables: value_lag6 <dbl>,
## #   value_lag7 <dbl>, value_lag8 <dbl>, value_lag9 <dbl>, value_lag10 <dbl>,
## #   value_lag11 <dbl>, value_lag12 <dbl>, value_lag13 <dbl>, value_lag14 <dbl>,
## #   value_lag15 <dbl>, value_lag16 <dbl>, value_lag17 <dbl>, value_lag18 <dbl>,
## #   value_lag19 <dbl>, value_lag20 <dbl>, value_lag21 <dbl>, value_lag22 <dbl>,
## #   value_lag23 <dbl>, value_lag24 <dbl>
…
